@relation crimelabaccidentaldrugdeathsextract

@attribute 'Acetaminophen' {T}
@attribute 'Alcohol' {T}
@attribute 'Alprazolam' {T}
@attribute 'Amitriptyline' {T}
@attribute 'Amphetamines' {T}
@attribute 'Benzodiazepines' {T}
@attribute 'Benzoylecgonine' {T}
@attribute 'Bupropion' {T}
@attribute 'Butalbital' {T}
@attribute 'Carbamazepine' {T}
@attribute 'Carbon Monoxide' {T}
@attribute 'Carisoprodol' {T}
@attribute 'Chlordiazepoxide' {T}
@attribute 'Chlorpheniramine' {T}
@attribute 'Citalopram' {T}
@attribute 'Clonazepam' {T}
@attribute 'Cocaine' {T}
@attribute 'Codeine' {T}
@attribute 'Cyclobenzaprine' {T}
@attribute 'Dextromethorphan' {T}
@attribute 'Diazepam' {T}
@attribute 'Diphenhydramine' {T}
@attribute 'Doxepin' {T}
@attribute 'Ethylene Glycol' {T}
@attribute 'Fentanyl' {T}
@attribute 'Fluoxetine' {T}
@attribute 'Gama-Hydroxybutyric Acid' {T}
@attribute 'Glucophage' {T}
@attribute 'Heroin' {T}
@attribute 'Hydrocodone' {T}
@attribute 'Hydromorphone' {T}
@attribute 'Lamotrigine' {T}
@attribute 'Mephobarbital' {T}
@attribute 'Meprobamate' {T}
@attribute 'Methadone' {T}
@attribute 'Methamphetamine' {T}
@attribute 'Midazolam' {T}
@attribute 'Mirtazapine' {T}
@attribute 'Morphine' {T}
@attribute 'Nordiazepam' {T}
@attribute 'Norpropoxyphene' {T}
@attribute 'Opiates' {T}
@attribute 'Oxycodone' {T}
@attribute 'Oxymorphone' {T}
@attribute 'Paroxetine' {T}
@attribute 'Phencyclidine' {T}
@attribute 'Phenobarbital' {T}
@attribute 'Promethazine' {T}
@attribute 'Propoxyphene' {T}
@attribute 'Quetiapine' {T}
@attribute 'Sertraline' {T}
@attribute 'Temazepam' {T}
@attribute 'Topiramate' {T}
@attribute 'Tramadol' {T}
@attribute 'Trazodone' {T}
@attribute 'Valproic Acid' {T}
@attribute 'Venlafaxine' {T}
@attribute 'Verapamil' {T}
@attribute 'Zolpidem' {T}
@attribute 'Zopiclone' {T}

@data
?	?	?	?	?	?	?	?	?	?	T	?	?	?	?	?	T	?	?	?	?	?	?	?	?	?	?	?	?	?	?	?	?	?	?	?	?	?	?	?	?	?	?	?	?	?	?	?	?	?	?	?	?	?	?	?	?	?	?	?
?	?	T	?	?	?	?	?	?	?	?	?	?	?	?	?	?	T	?	?	?	?	?	?	?	?	?	?	?	?	?	?	?	?	?	?	?	?	?	?	?	?	T	?	?	?	?	?	?	?	?	?	?	?	?	?	?	?	?	?
?	T	?	?	?	?	?	?	?	?	?	?	?	?	?	?	T	?	?	?	?	?	?	?	?	?	?	?	?	?	?	?	?	?	?	?	?	?	?	?	?	?	?	?	?	?	?	?	?	?	?	?	?	?	?	?	?	?	?	?
?	?	?	?	?	?	?	?	?	?	?	?	?	?	?	?	?	?	?	?	?	?	?	?	?	?	?	?	?	?	?	?	?	?	T	?	?	?	?	?	?	?	?	?	?	?	?	?	?	?	?	?	?	T	?	?	T	?	?	?
?	?	?	?	?	T	?	?	?	?	?	?	?	?	?	?	?	?	?	?	?	?	?	?	T	?	?	?	?	?	?	?	?	?	?	?	?	?	?	?	?	?	?	?	?	?	T	?	?	?	?	?	?	?	?	?	?	?	?	?
?	?	?	?	?	?	?	?	?	?	?	?	?	?	?	?	?	?	?	?	?	?	?	?	?	?	?	?	T	?	?	?	?	?	?	?	?	?	?	?	?	?	?	?	?	?	?	?	?	?	?	?	?	?	?	?	?	?	?	?
?	?	?	?	?	?	?	?	?	?	?	?	?	?	T	?	?	?	?	?	?	?	?	?	?	?	?	?	?	?	?	?	?	?	T	?	?	?	?	?	?	?	?	?	?	?	?	?	?	?	?	?	?	?	?	?	?	?	?	?
?	?	?	?	?	?	?	?	?	?	?	?	?	?	?	?	?	?	?	?	T	?	?	?	T	?	?	?	?	?	?	?	?	?	?	?	?	?	T	T	T	?	T	?	?	?	?	?	T	?	?	?	?	?	?	?	?	?	?	?
?	T	?	?	?	?	?	?	?	?	?	?	?	?	?	?	?	?	?	?	?	?	?	?	?	?	?	?	T	?	?	?	?	?	?	?	?	?	?	?	?	?	?	?	?	?	?	?	?	?	?	?	?	?	?	?	?	?	?	?
?	?	?	?	?	?	?	?	?	T	?	?	?	?	?	?	T	?	?	?	?	?	?	?	?	?	?	?	?	?	?	?	?	?	?	?	?	?	T	?	?	?	?	?	?	?	?	?	?	?	?	?	?	?	?	?	?	?	?	?
?	?	?	?	?	?	?	?	?	?	?	?	?	?	?	?	?	?	?	?	?	?	?	?	?	?	?	?	?	?	?	?	?	?	T	?	?	?	T	?	?	?	?	?	?	?	?	?	?	?	?	?	?	?	?	?	?	?	?	?
?	?	?	?	?	?	?	?	?	?	?	?	?	?	?	?	?	?	?	?	?	T	?	?	T	?	?	?	?	?	?	?	?	?	?	?	?	?	?	?	?	?	?	?	?	?	?	?	?	?	?	?	?	?	?	?	?	?	?	?
?	?	?	?	?	?	?	?	?	?	?	?	?	?	?	?	?	?	?	?	?	?	?	?	?	?	?	?	?	T	?	?	?	?	?	?	?	?	?	?	?	?	?	?	?	?	?	?	?	?	?	?	?	?	?	?	?	?	?	?
?	?	T	T	?	?	?	?	?	?	?	?	?	?	?	?	?	?	?	?	?	?	?	?	?	?	?	?	?	?	?	?	?	?	?	?	?	?	?	?	?	?	?	?	?	?	?	?	?	?	?	?	T	T	?	?	?	?	?	?
?	?	T	?	?	?	?	?	?	?	?	?	?	?	?	?	?	?	?	?	?	?	?	?	?	?	?	?	?	?	?	?	?	?	T	?	?	?	?	?	?	?	T	?	?	?	?	?	?	?	?	?	?	?	?	?	?	?	?	?
T	T	?	T	?	?	?	?	?	?	?	?	?	?	?	?	?	?	?	?	?	T	?	?	?	?	?	?	?	?	?	?	?	?	?	?	?	T	?	?	?	?	?	?	?	?	?	?	?	?	?	?	?	?	?	?	?	?	?	?
?	T	?	?	?	?	?	?	?	?	?	?	?	?	?	T	?	?	?	?	?	?	?	?	?	?	?	?	T	?	?	?	?	?	?	?	?	?	?	?	?	?	?	?	?	?	?	?	T	?	?	?	?	?	?	?	?	?	?	?
?	?	T	?	?	?	?	?	?	?	?	?	?	?	?	?	T	?	?	?	?	?	?	?	?	?	?	?	T	?	?	?	?	?	?	?	?	?	?	?	?	?	?	?	?	?	?	?	?	?	?	?	?	?	?	?	?	?	?	?
?	?	?	?	?	?	?	?	?	?	?	?	?	?	?	?	?	?	?	?	?	?	?	?	?	?	?	?	T	?	?	?	?	?	?	?	?	?	?	?	?	?	?	?	?	?	?	?	?	?	?	?	?	?	?	?	?	?	?	?
?	T	?	?	?	?	?	?	?	?	?	?	?	?	?	?	?	T	?	?	?	?	?	?	?	?	?	?	?	T	?	?	?	?	?	?	?	?	?	?	?	?	?	?	?	?	?	?	?	?	?	?	?	?	?	?	?	?	?	?
?	?	T	?	?	?	?	?	?	?	?	T	?	?	?	?	?	?	?	?	T	?	?	?	?	?	?	?	?	T	?	?	?	T	?	?	?	?	?	T	?	?	?	?	?	?	?	?	?	?	?	?	?	?	?	?	?	?	?	?
?	T	?	?	?	?	?	?	?	?	?	?	?	?	?	?	T	?	?	?	?	?	?	?	?	?	?	?	?	?	?	?	?	?	?	?	?	?	?	?	?	?	?	?	?	?	?	?	?	?	?	?	?	?	?	?	?	?	?	?
?	?	?	?	?	?	?	?	?	?	?	?	?	?	?	T	?	?	?	?	?	?	?	?	?	?	?	?	?	?	?	?	?	?	T	?	?	?	?	?	?	?	?	?	?	?	?	?	?	?	?	?	?	?	?	?	T	?	?	?
?	T	?	?	?	?	?	?	?	?	?	?	?	?	?	?	T	?	?	?	?	?	?	?	?	?	?	?	T	?	?	?	?	?	?	?	?	?	?	?	?	?	?	?	?	?	?	?	?	?	?	?	?	?	?	?	?	?	?	?
?	?	?	?	?	?	?	?	?	?	?	?	?	?	?	?	T	?	?	?	T	?	?	?	?	?	?	?	?	?	?	?	?	?	?	?	?	?	T	T	?	?	?	?	?	?	?	?	?	?	?	?	?	?	?	?	?	?	?	?
?	T	?	?	?	?	?	?	?	?	?	?	?	?	?	?	?	?	?	?	?	?	?	?	?	?	?	?	?	?	?	?	?	?	?	?	?	?	?	?	?	?	?	?	?	?	?	?	?	?	?	?	?	?	?	?	?	?	?	?
?	?	T	?	?	?	?	?	?	?	?	?	?	?	?	?	?	?	?	?	T	?	?	?	T	?	?	?	?	?	?	?	?	?	T	?	?	?	?	T	?	?	T	?	?	?	?	?	?	?	?	?	?	?	?	?	?	?	?	?
?	?	?	?	?	?	?	?	?	?	?	?	?	?	?	?	T	T	?	?	?	?	?	?	?	?	?	?	T	?	?	?	?	?	?	?	?	?	?	?	?	?	?	?	?	?	?	?	?	?	?	?	?	?	?	?	?	?	?	?
T	?	?	?	?	?	?	?	?	?	?	?	?	?	?	?	?	T	?	?	?	?	?	?	?	?	?	?	?	?	?	?	?	?	?	?	?	?	T	?	?	?	?	?	?	?	?	?	?	?	?	?	?	?	?	?	?	?	?	?
?	?	?	?	?	?	?	?	?	?	?	?	?	?	?	?	?	?	?	?	?	?	?	?	?	?	?	?	T	?	?	?	?	?	?	?	?	?	?	?	?	?	?	?	?	?	?	?	?	?	?	?	?	?	?	?	?	?	?	?
?	?	?	?	?	?	?	?	?	?	?	?	?	?	?	?	?	?	?	?	T	?	?	?	T	?	?	?	?	?	?	?	?	?	?	?	?	?	?	T	T	?	T	?	?	?	?	?	T	?	?	?	?	?	?	?	?	?	?	?
?	?	?	?	?	?	?	?	?	?	?	?	?	?	?	?	?	?	?	?	?	?	?	?	?	?	?	?	?	?	?	?	?	?	T	?	?	?	?	?	?	?	?	?	?	?	?	?	?	?	?	?	?	?	?	?	?	?	?	?
?	T	?	?	?	?	?	?	?	?	?	?	?	?	?	?	?	?	?	?	?	?	?	?	?	?	?	?	T	?	?	?	?	?	?	?	?	?	?	?	?	?	?	?	?	?	?	?	?	?	?	?	?	?	?	?	?	?	?	?
?	T	?	?	?	?	?	?	?	?	?	?	?	?	?	?	?	?	?	?	?	?	?	?	T	?	?	?	?	T	?	?	?	?	?	?	?	?	?	?	?	?	?	?	?	?	?	?	?	?	?	?	?	?	?	?	?	?	?	?
T	?	?	?	?	?	?	?	?	?	?	?	?	?	?	?	?	?	?	?	?	?	?	?	?	?	?	?	?	T	?	?	?	?	?	?	?	?	?	?	?	?	?	?	?	?	?	?	?	?	?	T	?	?	?	?	?	?	?	?
?	T	?	?	?	?	?	?	?	?	?	?	?	?	?	?	?	?	?	?	?	?	?	?	?	?	?	?	T	?	?	T	?	T	?	?	?	?	?	?	?	?	?	?	?	?	?	?	?	?	?	?	?	?	?	?	?	?	?	?
?	?	?	?	?	?	?	?	?	?	?	?	?	?	?	?	T	?	?	?	?	?	?	?	?	?	?	?	?	?	?	?	?	?	?	?	?	?	?	?	?	?	?	?	?	?	?	?	?	?	?	?	?	?	?	?	?	?	?	?
?	?	?	?	?	?	?	?	?	?	?	?	?	?	?	?	?	?	?	?	T	?	?	?	?	?	?	?	?	T	?	T	?	?	?	?	?	?	?	?	?	?	T	?	?	?	?	?	?	?	?	?	?	?	?	?	?	?	?	?
?	?	?	?	?	?	?	?	?	?	?	?	?	?	?	?	T	?	?	?	?	?	?	?	?	?	?	?	T	?	?	?	?	?	?	?	?	?	?	?	?	?	?	?	?	?	?	?	?	?	?	?	?	?	?	?	?	?	?	?
?	?	?	?	?	?	?	?	?	?	?	?	?	?	?	?	T	?	?	?	?	?	?	?	?	?	?	?	?	?	?	?	?	?	?	?	?	?	?	?	?	?	?	?	?	?	?	?	?	?	?	?	?	?	?	?	?	?	?	?
?	?	?	?	?	?	?	?	?	?	?	?	?	?	T	?	?	?	?	?	?	?	?	?	?	?	?	?	?	?	?	?	?	?	?	?	?	?	?	?	?	?	T	?	?	?	?	?	T	?	?	?	?	?	?	?	?	?	?	?
?	?	T	?	?	?	?	?	?	?	?	?	?	?	?	?	T	?	?	?	?	?	?	?	?	?	?	?	?	?	?	?	?	?	?	?	?	?	?	?	?	?	T	?	?	?	?	?	?	?	?	?	?	?	?	?	?	?	?	?
?	?	T	T	?	?	?	?	?	?	?	T	?	?	?	?	?	?	T	?	?	?	?	?	?	?	?	?	?	?	?	?	?	T	?	?	?	?	?	?	?	?	?	?	?	?	?	?	?	?	?	?	T	?	?	?	?	?	?	?
?	?	?	?	?	?	?	?	?	?	?	?	?	?	?	?	T	T	?	?	?	?	?	?	?	?	?	?	?	?	?	?	?	?	?	?	?	?	?	?	?	?	?	?	?	?	T	?	?	?	?	?	?	?	?	?	?	?	?	?
?	?	?	?	?	?	?	?	?	?	?	?	?	?	?	?	?	T	?	?	?	T	?	?	?	?	?	?	T	?	?	?	?	?	?	?	?	?	?	?	?	?	?	?	?	?	?	?	?	?	?	?	?	?	T	?	?	?	?	?
?	?	?	?	?	?	?	?	?	?	?	?	?	?	?	?	T	?	?	?	?	?	?	?	?	?	?	?	?	?	?	?	?	?	T	?	?	?	T	?	?	?	?	?	?	?	?	?	?	?	?	?	?	?	?	?	?	?	?	?
T	T	?	?	?	?	?	?	?	?	?	?	?	?	?	?	?	?	?	?	?	?	?	?	?	?	?	?	?	?	?	?	?	?	?	?	?	?	?	?	?	?	T	?	?	?	?	?	?	?	?	?	?	?	?	?	?	?	?	?
?	T	?	?	?	?	?	?	?	?	?	?	?	?	?	?	T	?	?	?	?	?	?	?	?	?	?	?	T	?	?	?	?	?	?	?	?	?	?	?	?	?	?	?	?	?	?	?	?	?	?	?	?	?	?	?	?	?	?	?
?	?	?	?	?	?	?	?	?	?	?	?	?	?	?	?	?	?	?	?	?	?	?	?	?	?	?	?	?	?	?	?	?	?	?	?	?	?	T	?	?	?	?	?	?	?	?	?	?	?	?	?	?	?	?	?	?	?	?	?
?	T	?	?	?	?	?	?	?	?	?	?	?	?	?	?	T	?	?	?	?	?	?	?	?	?	?	?	?	T	?	?	?	?	T	?	?	?	?	?	?	?	?	?	?	?	?	?	?	?	?	?	?	?	?	?	?	?	?	?
?	?	T	?	?	?	?	?	?	?	?	?	?	?	?	?	?	?	?	?	?	?	?	?	?	?	?	?	T	?	?	?	?	?	?	?	?	?	?	?	?	?	?	?	?	?	?	?	?	?	?	?	?	?	?	?	?	?	?	?
?	?	?	?	?	?	?	?	?	?	?	?	?	?	?	?	T	?	?	?	?	?	?	?	?	?	?	?	T	?	?	?	?	?	?	?	?	?	?	?	?	?	?	?	?	?	?	?	?	?	?	?	?	?	?	?	?	?	?	?
?	?	T	?	?	?	?	?	?	?	?	?	?	?	?	?	?	?	?	?	?	?	?	?	T	?	?	?	?	?	?	?	?	?	?	?	?	?	T	?	?	?	T	?	?	?	?	?	?	?	?	?	?	?	?	?	?	?	?	?
T	T	?	?	?	?	?	?	?	?	?	?	?	?	?	?	?	?	?	?	?	?	?	?	?	?	?	?	?	?	?	?	?	?	?	?	?	?	?	?	?	?	T	T	?	?	?	?	?	?	?	?	?	?	?	?	?	?	?	?
?	?	?	?	?	T	?	?	?	?	?	?	?	?	?	?	T	?	?	?	?	?	?	?	?	?	?	?	?	?	?	?	?	?	T	?	?	?	?	?	?	?	?	?	?	?	?	?	?	?	?	?	T	?	?	T	?	?	?	?
?	T	T	?	?	?	?	?	?	?	?	?	?	?	?	?	?	T	?	?	?	?	?	?	?	?	?	?	T	T	?	?	?	?	?	?	?	?	?	?	?	?	?	?	?	?	?	?	?	?	?	?	?	?	?	?	?	?	?	?
?	?	?	?	?	?	?	?	?	?	?	?	?	?	?	?	?	?	?	?	?	T	?	?	?	?	?	?	?	?	?	?	?	?	?	?	?	?	?	?	?	?	?	?	?	?	?	?	?	?	?	?	?	?	?	?	?	?	?	?
?	?	T	?	?	?	?	?	?	?	?	?	?	?	?	?	?	?	?	?	?	?	?	?	?	?	?	?	?	?	?	?	?	?	T	?	?	?	?	?	?	?	?	?	?	?	?	?	T	?	?	?	?	?	?	?	T	?	?	?
?	T	?	?	?	?	?	?	?	?	?	?	?	?	?	?	?	?	?	?	T	?	?	?	?	?	?	?	?	?	?	?	?	?	?	?	?	?	?	T	?	?	T	?	?	?	?	?	?	?	?	?	?	?	?	?	?	?	?	?
?	?	?	?	?	?	?	?	?	?	?	?	?	?	?	?	T	?	?	?	?	?	?	?	?	?	?	?	?	?	?	?	?	?	?	?	?	?	?	?	?	?	?	?	?	?	?	?	?	?	?	?	?	?	?	?	?	?	?	?
?	T	?	?	?	?	?	?	?	?	?	?	?	?	?	?	T	?	T	?	?	T	?	?	T	?	?	?	?	?	?	?	?	?	?	?	?	?	?	?	?	?	?	T	?	?	?	?	?	?	T	?	?	?	?	?	?	?	?	?
?	T	T	?	?	?	?	?	?	?	?	?	?	?	?	?	?	?	?	?	?	?	?	?	?	?	?	?	T	?	?	?	?	T	?	?	?	?	?	?	?	?	?	?	?	?	?	?	?	?	?	?	?	?	?	?	?	?	?	?
?	T	?	?	?	?	?	?	?	?	?	?	?	?	?	?	?	?	?	?	T	?	?	?	?	?	?	?	T	?	?	?	?	?	?	?	?	?	?	?	?	?	?	?	?	?	?	?	?	?	?	?	?	?	?	?	?	?	?	?
?	?	?	?	?	?	?	?	?	?	?	?	?	?	?	?	?	?	?	?	?	?	?	?	?	?	?	?	?	T	?	?	?	?	?	?	?	?	?	?	?	?	?	?	?	?	?	?	?	?	?	?	?	?	?	?	?	?	?	?
?	?	?	?	?	?	?	?	?	?	?	?	?	?	?	?	T	?	?	?	?	?	?	?	?	?	?	?	T	?	?	?	?	?	?	?	?	?	?	?	?	?	?	?	?	?	?	?	?	?	?	?	?	?	?	?	?	?	?	?
?	?	?	?	?	?	?	?	?	?	?	?	?	?	?	?	T	?	?	?	?	?	?	?	?	?	?	?	?	?	?	?	?	?	?	?	?	?	?	?	?	?	?	?	?	?	?	?	?	?	?	?	?	?	?	?	?	?	?	?
?	?	T	?	?	?	?	?	?	?	?	?	?	?	?	?	T	?	?	?	?	?	?	?	?	?	?	?	?	?	?	?	?	?	?	?	?	?	?	?	?	?	?	?	?	?	?	?	?	?	?	?	T	?	?	?	?	?	?	?
?	?	T	?	?	?	?	?	?	?	?	?	?	?	?	?	T	?	?	?	?	?	?	?	?	?	?	?	?	?	?	?	?	?	T	?	?	?	?	?	?	?	?	?	?	?	?	?	?	?	?	?	?	?	?	?	?	?	?	?
?	T	?	?	?	?	?	?	?	?	?	?	?	?	?	?	T	?	?	?	?	?	?	?	?	?	?	?	T	?	?	?	?	?	?	?	?	?	?	?	?	?	?	?	?	?	?	?	?	?	?	?	?	?	?	?	?	?	?	?
?	?	?	?	?	?	?	?	?	?	?	?	?	?	?	?	?	?	?	?	?	?	?	?	?	?	?	?	T	?	?	?	?	?	?	?	?	?	?	?	?	?	?	?	?	?	?	?	?	?	?	?	?	?	?	?	?	?	?	?
?	?	T	?	?	?	?	?	?	?	?	?	?	?	?	?	?	?	?	?	?	?	?	?	?	?	?	?	T	?	?	?	?	?	?	?	?	?	?	?	?	?	?	?	?	?	?	?	?	?	?	?	?	?	?	?	?	?	?	?
?	?	?	?	?	?	?	?	?	?	?	?	T	?	?	?	?	?	?	?	?	?	?	?	?	?	?	?	?	?	?	?	?	?	?	?	?	?	T	?	?	?	?	?	?	?	?	?	?	?	?	?	?	?	?	?	?	?	?	?
?	?	T	?	?	?	?	?	?	?	?	?	?	?	?	?	?	?	?	?	?	?	?	?	?	?	?	?	T	?	?	?	?	?	?	?	?	?	?	?	?	?	?	?	?	?	?	?	?	?	?	?	?	?	?	?	?	?	?	?
?	T	?	?	?	?	?	?	?	?	?	?	?	?	?	?	?	?	?	?	?	?	?	?	?	?	?	?	?	?	?	?	?	?	?	?	?	?	?	?	?	?	?	?	?	?	?	?	?	?	?	?	?	?	?	?	?	?	?	?
?	?	?	?	?	?	?	?	?	?	?	?	?	?	?	?	T	?	?	?	?	?	?	?	?	?	?	?	T	?	?	?	?	?	?	?	?	?	?	?	?	?	?	?	?	?	?	?	?	?	?	?	?	?	?	?	?	?	?	?
?	?	?	?	?	?	?	?	?	?	?	?	?	?	T	?	?	?	?	?	?	T	?	?	?	?	?	?	?	?	?	?	?	?	?	?	?	?	?	?	?	?	?	?	?	?	?	?	?	?	?	?	?	?	?	?	?	?	?	?
?	T	?	?	?	?	?	?	?	?	?	?	?	?	?	?	T	?	?	?	?	?	?	?	?	?	?	?	T	?	?	?	?	?	?	?	?	?	?	?	?	?	?	?	?	?	?	?	?	?	?	?	?	?	?	?	?	?	?	?
?	?	?	?	?	?	?	?	?	?	T	?	?	?	?	?	?	?	?	?	?	?	?	?	?	?	?	?	?	?	?	?	?	?	?	?	?	?	?	?	?	?	?	?	?	?	?	?	?	?	?	?	?	?	?	?	?	?	?	?
T	?	?	?	?	?	?	?	?	?	?	?	?	?	?	?	?	?	?	?	?	?	?	?	?	?	?	?	?	?	?	?	?	?	?	?	?	?	?	?	?	?	?	?	?	?	?	?	?	?	?	?	?	?	?	?	?	?	?	?
?	?	?	?	?	T	?	?	?	?	?	?	?	?	?	?	T	?	?	?	?	?	?	?	?	?	?	?	?	?	?	?	?	?	?	?	?	?	?	?	?	T	?	?	?	?	?	?	?	?	?	?	?	?	?	?	?	?	?	?
?	?	?	?	?	?	T	?	?	?	?	?	?	?	?	?	T	?	?	?	?	?	?	?	?	?	?	?	?	T	?	?	?	?	T	?	?	?	?	?	?	T	T	?	?	?	?	?	?	?	?	?	?	?	?	?	?	?	?	?
?	?	?	?	?	?	?	?	?	?	?	?	?	?	T	?	?	?	?	?	?	?	?	?	?	?	?	?	?	?	?	?	?	?	?	?	?	?	T	?	?	?	?	?	?	?	?	?	?	?	?	?	?	?	?	?	?	?	?	?
?	?	?	?	?	?	?	?	?	?	?	?	?	?	?	?	?	?	?	?	?	?	?	?	?	?	?	?	?	?	?	?	?	?	?	?	?	?	T	?	?	?	?	?	?	?	?	?	?	?	?	?	?	?	?	?	?	?	?	?
?	T	?	?	?	?	?	?	?	?	?	?	?	?	?	?	T	?	?	?	?	?	?	?	?	?	?	?	?	?	?	?	?	?	?	?	?	?	?	?	?	?	?	?	?	?	?	?	?	?	?	?	?	?	?	?	?	?	?	?
?	?	?	?	?	?	?	?	?	?	?	?	?	?	?	?	?	?	?	?	T	?	?	?	?	?	?	?	T	?	?	?	?	?	?	?	?	?	?	T	?	?	?	?	?	?	?	?	?	?	?	T	?	?	?	?	?	?	?	?
?	?	?	?	?	?	?	?	?	?	?	?	?	?	?	?	?	?	?	?	?	?	?	?	T	?	?	?	?	T	?	?	?	?	?	?	?	?	?	?	?	?	?	?	?	?	?	?	T	?	?	?	?	?	?	?	?	?	?	?
?	?	?	T	?	?	?	?	?	?	?	?	?	?	?	?	?	?	?	?	?	?	?	?	?	?	?	?	?	?	?	?	?	?	?	?	?	?	T	?	?	?	?	?	?	?	T	?	?	?	?	?	?	?	?	?	?	?	?	?
?	?	T	?	?	?	?	?	?	?	?	?	?	?	?	?	?	?	?	?	?	?	?	?	?	?	?	?	?	?	?	?	?	?	?	?	?	?	?	?	?	?	?	?	?	?	?	?	?	?	?	?	?	?	?	?	?	?	?	?
?	T	?	?	?	T	?	?	?	?	?	?	?	?	?	?	T	?	?	?	?	?	?	?	?	?	?	?	?	?	?	?	?	?	T	?	?	?	?	?	?	?	?	?	?	?	?	?	?	?	?	?	?	?	?	?	T	?	?	?
?	?	?	?	?	?	?	?	?	?	?	?	?	?	?	?	T	?	?	?	?	?	?	?	T	?	?	?	?	?	?	?	?	?	?	?	?	?	?	?	?	?	?	?	?	?	?	?	?	?	?	?	?	?	T	?	?	?	?	?
?	T	?	?	?	?	?	?	?	?	?	?	?	?	?	?	?	?	?	?	?	?	?	?	?	?	?	?	?	?	?	?	?	?	?	?	?	?	?	?	?	?	?	?	?	?	?	?	?	?	?	?	?	?	T	?	?	?	?	?
T	T	?	?	?	?	?	?	?	?	?	?	?	?	?	?	?	?	?	?	?	?	?	?	?	?	?	?	?	T	?	?	?	?	?	?	?	?	?	?	?	?	T	?	?	?	?	?	?	?	?	?	?	?	?	?	?	?	?	?
?	?	T	?	?	?	?	?	?	?	?	?	?	?	?	?	T	?	?	?	?	?	?	?	?	?	?	?	T	?	?	?	?	?	?	?	?	?	?	?	?	?	?	?	?	?	?	?	?	?	?	?	?	?	?	?	?	?	?	?
?	?	?	?	?	?	?	?	?	?	?	?	?	?	?	?	T	?	?	?	?	?	?	?	?	?	?	?	T	?	?	?	?	?	?	?	?	?	?	?	?	?	?	?	?	?	?	?	?	?	?	?	?	?	?	?	?	?	?	?
?	?	T	?	?	?	?	?	?	?	?	?	?	?	?	?	?	?	?	?	?	?	?	?	?	?	?	?	?	?	?	?	?	?	?	?	?	?	?	?	?	?	T	T	?	?	?	?	?	?	?	?	?	?	?	?	?	?	?	?
?	?	?	?	?	?	?	?	?	?	?	?	?	?	?	?	?	?	?	?	?	?	?	?	?	?	?	?	?	?	?	?	?	?	?	?	?	?	?	?	?	?	?	?	?	?	?	?	?	?	?	?	?	?	?	?	?	?	?	?
?	T	T	?	?	?	?	?	?	?	?	?	?	?	?	?	?	?	?	?	?	?	?	?	?	?	?	?	?	?	?	?	?	?	?	?	?	?	?	?	?	?	T	?	?	?	?	?	?	?	?	?	?	?	?	?	?	?	?	?
?	?	?	?	?	?	?	?	?	?	?	?	?	?	?	?	?	?	?	?	?	?	?	?	?	?	?	?	?	?	?	?	?	?	T	?	?	?	?	?	?	?	?	?	?	?	?	?	?	?	?	?	?	?	?	?	?	?	?	?
?	?	?	?	?	?	?	?	?	?	?	?	?	?	?	?	?	?	?	?	?	?	?	?	?	?	?	?	?	?	?	?	?	?	?	?	?	?	?	?	?	?	?	?	?	?	?	?	?	?	?	?	?	T	?	?	?	?	?	?
?	?	?	?	?	?	?	?	?	?	?	?	?	?	?	?	T	?	?	?	?	?	?	?	?	?	?	?	T	?	?	?	?	?	?	?	?	?	?	?	?	?	?	?	?	?	?	?	?	?	?	?	?	?	?	?	?	?	?	?
?	?	?	?	?	?	?	?	?	?	?	?	?	?	?	?	T	?	?	?	?	?	?	?	?	?	?	?	?	?	?	?	?	?	?	?	?	?	?	?	?	?	?	?	?	?	?	?	?	?	?	?	?	?	?	?	?	?	?	?
?	?	?	?	?	?	?	?	?	?	?	?	?	?	?	?	T	?	?	?	?	?	?	?	?	?	?	?	?	?	?	?	?	?	?	?	?	?	?	?	?	?	?	?	?	?	?	?	T	?	?	?	?	?	?	?	?	?	?	?
?	T	?	?	?	?	?	?	?	?	?	?	?	?	?	?	?	?	?	?	?	?	?	?	?	?	?	?	T	?	?	?	?	?	T	?	?	?	?	?	?	?	?	?	?	?	?	?	?	?	?	?	?	?	?	?	?	?	?	?
?	T	?	?	?	?	?	?	?	?	?	?	?	?	?	?	T	?	?	?	?	?	?	?	?	?	?	?	?	?	?	?	?	?	T	?	?	?	?	?	?	?	?	?	?	?	?	?	?	T	?	?	?	?	?	?	T	?	?	?
?	?	?	?	?	?	?	?	?	?	?	?	?	?	?	?	?	?	?	?	?	?	?	?	?	?	?	?	?	?	?	?	?	?	?	?	?	?	?	?	?	T	?	?	?	?	?	?	?	?	?	?	?	?	?	?	?	?	?	?
?	?	?	?	?	?	?	?	?	?	?	?	?	?	?	?	T	?	?	?	T	?	?	?	?	?	?	?	?	?	?	?	?	?	?	?	?	?	?	T	?	?	?	?	?	?	?	?	?	?	?	?	?	?	?	?	?	?	?	?
?	?	?	?	?	?	?	?	?	?	?	?	?	?	?	?	T	?	?	?	?	?	?	?	?	?	?	?	?	?	?	?	?	?	?	?	?	?	?	?	?	?	?	?	?	?	?	?	?	?	?	?	?	?	?	?	?	?	?	?
?	T	?	?	?	?	?	?	?	?	?	?	?	?	?	?	?	?	?	?	?	?	?	?	?	?	?	?	?	?	?	?	?	?	?	?	?	?	?	?	?	?	T	?	?	?	?	?	?	?	?	?	?	?	?	?	?	?	?	?
?	?	T	?	?	?	?	?	?	?	?	?	?	?	?	?	?	?	?	?	?	?	?	?	?	?	?	?	T	?	?	?	?	?	?	?	?	?	?	?	?	?	?	?	?	?	?	?	?	?	?	?	?	?	?	?	?	?	?	?
?	?	T	?	?	?	?	?	?	?	?	?	?	?	?	?	?	?	?	?	?	?	?	?	?	T	?	?	?	?	?	?	?	?	T	?	?	?	?	?	?	?	?	?	?	?	?	T	?	?	?	?	?	?	?	?	?	?	?	?
?	T	?	?	?	?	?	?	?	?	?	?	?	?	?	?	T	?	?	?	?	?	?	?	?	?	?	?	?	?	?	?	?	?	?	?	?	?	?	?	?	?	?	T	?	?	?	?	?	?	?	?	?	?	?	?	?	?	?	?
?	T	?	?	?	?	?	?	?	?	?	?	?	?	?	?	?	?	?	?	?	?	?	?	?	?	?	?	?	?	?	?	?	?	?	?	?	?	?	?	?	?	?	?	?	?	?	?	?	?	?	?	?	?	?	?	?	?	?	?
?	T	?	?	?	?	?	?	?	?	?	?	?	?	T	?	?	?	?	?	?	?	?	?	?	?	?	?	?	?	?	?	?	?	?	?	?	?	T	?	?	?	?	?	?	?	?	?	?	?	?	?	?	?	?	?	?	?	?	?
?	?	?	?	?	?	?	?	?	?	?	?	?	?	?	?	?	?	?	?	?	?	?	?	?	?	?	?	?	?	?	?	?	?	?	?	?	?	T	?	?	?	?	?	?	?	?	?	?	?	?	?	?	?	?	?	?	?	?	?
?	?	?	?	?	?	?	?	?	?	?	?	?	?	T	?	?	?	?	?	?	?	?	?	?	?	?	?	T	?	?	?	?	?	?	?	?	?	?	?	?	?	?	?	?	?	?	?	?	?	?	?	?	?	?	?	?	?	?	?
?	?	?	?	?	?	?	T	?	?	?	T	?	?	?	?	?	?	?	?	?	?	?	?	?	?	?	?	?	?	?	?	?	T	?	?	?	?	?	?	?	?	?	?	?	?	?	?	T	?	?	?	?	?	?	?	?	?	T	?
?	?	?	?	?	?	?	?	?	?	?	?	?	?	?	?	T	?	?	?	?	?	?	?	?	?	?	?	T	?	?	?	?	?	?	T	?	?	?	?	?	?	?	?	?	?	?	?	?	?	?	?	?	?	?	?	?	?	?	?
?	?	?	?	?	?	?	?	?	?	?	?	?	T	?	?	?	?	?	T	?	?	?	?	?	?	?	?	?	?	?	?	?	?	?	?	?	?	?	?	?	?	?	?	?	?	?	?	?	?	?	?	?	?	?	?	?	?	?	?
?	?	?	?	?	?	?	?	?	?	?	?	?	?	?	?	T	T	?	?	?	?	?	?	?	?	?	?	?	?	T	?	?	?	?	?	?	?	T	?	?	?	?	?	?	?	?	?	?	?	?	?	?	?	?	?	?	?	?	?
?	?	T	?	?	?	?	?	?	?	?	?	?	?	?	?	T	?	?	?	?	?	?	?	?	?	?	?	?	?	?	?	?	?	?	?	?	?	?	?	?	?	?	T	?	?	?	?	?	?	?	?	?	?	?	?	?	?	?	?
?	T	?	?	?	?	?	?	?	?	?	?	?	?	?	?	?	?	?	?	?	?	?	?	?	?	?	?	?	?	?	?	?	?	T	?	?	?	?	?	?	?	?	?	?	?	?	?	?	?	?	?	?	?	?	?	?	?	?	?
?	?	?	?	?	?	?	?	?	?	?	?	?	?	?	?	T	?	?	?	?	?	?	?	?	?	?	?	?	?	?	?	?	?	T	?	?	?	T	?	?	?	?	?	?	?	?	?	?	?	?	?	?	?	?	?	?	?	?	?
?	T	T	?	?	?	?	?	?	?	?	?	?	?	?	?	T	?	?	?	?	?	?	?	?	?	?	?	T	?	?	?	?	?	?	?	?	?	T	?	?	?	?	?	?	?	?	?	?	?	?	?	?	?	?	?	?	?	?	?
?	T	?	?	?	?	?	?	?	?	?	?	?	?	?	?	T	?	?	?	?	?	?	?	?	?	?	?	?	?	?	?	?	?	?	?	?	?	?	?	?	?	?	?	?	?	?	?	?	?	?	?	?	?	?	?	?	?	?	?
?	?	?	?	?	?	?	?	?	?	?	?	?	?	?	?	?	?	?	?	?	?	?	?	?	?	?	?	T	?	?	?	?	?	?	?	?	?	T	?	?	?	?	?	?	?	?	?	?	?	?	?	?	?	?	?	?	?	?	?
?	T	?	?	?	?	?	?	?	?	?	?	?	?	?	?	?	?	?	?	?	?	?	?	?	?	?	?	?	?	?	?	?	?	?	?	?	?	?	?	?	?	?	?	?	?	?	?	?	?	?	?	?	?	?	?	?	?	?	?
?	?	?	?	?	?	?	?	?	?	?	?	?	?	?	?	T	?	?	?	?	?	?	?	?	?	?	?	?	?	?	?	?	?	T	?	?	?	?	?	?	?	?	?	?	?	?	?	?	?	?	?	?	?	?	?	?	?	?	?
?	T	?	?	?	?	?	?	?	?	?	?	?	?	?	?	?	?	?	?	?	?	?	?	?	?	?	?	?	?	?	?	?	?	?	?	?	?	?	?	?	?	?	?	?	?	?	?	?	?	?	?	?	?	?	?	?	?	?	?
?	?	?	?	?	?	?	?	?	?	?	?	?	?	?	?	?	?	?	?	?	?	?	?	?	T	?	?	?	?	?	T	?	?	?	?	?	?	?	?	?	?	?	?	?	?	?	?	?	?	?	?	?	?	?	?	?	?	?	?
?	?	?	?	?	?	?	?	?	?	?	?	?	?	?	?	T	?	?	?	?	?	?	?	?	?	?	?	?	?	?	?	?	?	?	?	?	?	?	?	?	?	?	?	?	?	?	?	?	?	?	?	?	?	?	?	?	?	?	?
?	?	?	?	?	?	?	?	?	?	?	?	?	?	?	?	?	?	?	?	?	?	?	?	?	?	?	?	?	?	?	?	?	?	?	?	?	?	?	?	?	?	?	?	?	?	?	?	T	?	?	?	?	?	?	?	?	?	?	?
?	T	?	?	?	?	?	?	?	?	?	?	?	?	?	?	?	?	?	?	?	?	?	?	?	?	?	?	?	?	?	?	?	?	?	?	?	?	?	?	?	?	?	?	?	?	?	?	?	?	?	?	?	?	?	?	?	?	?	?
?	?	?	?	?	?	?	?	?	?	?	?	?	?	?	?	?	?	?	?	?	?	?	?	?	?	?	?	?	?	?	?	?	?	T	?	?	?	?	?	?	?	?	?	?	?	?	?	?	?	?	?	?	?	?	?	T	?	?	?
?	?	T	?	?	?	?	?	?	?	?	?	?	?	?	?	?	T	?	?	?	?	?	?	?	?	?	?	?	?	?	?	?	?	?	?	?	?	T	?	?	?	?	?	?	?	?	?	?	?	?	?	?	?	?	?	?	?	?	?
?	?	?	?	?	?	?	?	?	?	?	?	?	?	?	?	?	?	?	?	?	?	?	?	?	?	?	?	?	T	?	?	?	?	?	?	?	?	T	?	?	?	T	?	?	?	?	?	?	?	?	?	?	?	?	?	?	?	?	?
?	?	?	?	?	?	?	?	?	?	?	?	?	?	?	?	T	?	?	?	?	?	?	?	?	?	?	?	?	?	?	T	?	?	T	?	?	?	?	?	?	?	?	?	?	?	?	?	?	?	?	?	?	?	?	?	?	?	?	?
?	T	?	?	?	?	?	?	?	?	?	?	?	?	?	?	?	?	?	?	?	?	?	?	?	?	?	?	T	?	?	?	?	?	?	?	?	?	?	?	?	?	?	?	?	?	?	?	?	?	?	?	?	?	?	?	?	?	?	?
?	?	?	?	?	?	?	?	?	?	?	?	?	?	?	?	?	?	?	?	?	?	?	?	?	?	?	?	T	?	?	?	?	?	?	?	?	?	T	?	?	?	?	?	?	?	?	?	?	?	?	?	?	?	?	?	?	?	?	?
?	?	?	?	?	?	?	?	?	?	?	?	?	?	?	?	?	?	?	?	?	?	?	?	?	?	?	?	?	?	?	?	?	?	T	?	?	?	?	?	?	?	?	?	?	?	?	?	?	?	?	?	?	?	?	?	?	?	?	?
?	T	?	?	?	?	?	?	?	?	?	?	?	?	?	?	T	?	?	?	?	?	?	?	?	?	?	?	?	T	?	?	?	?	?	?	?	?	?	?	?	?	?	?	?	?	?	?	?	?	?	?	?	?	?	?	?	?	?	?
?	T	?	?	?	?	?	?	?	?	?	?	?	?	?	?	?	?	?	?	?	?	?	?	?	?	?	?	T	?	?	?	?	?	?	?	?	?	?	?	?	?	?	?	?	?	?	?	?	?	?	?	?	?	?	?	?	?	?	?
?	T	?	?	?	?	?	?	?	?	?	?	?	?	?	?	?	?	?	?	?	?	?	?	?	?	?	?	?	?	?	?	?	?	?	?	?	?	?	?	?	?	?	?	?	?	?	?	?	?	?	?	?	?	?	?	?	?	?	?
?	?	?	?	?	?	?	?	?	?	?	?	?	?	?	?	T	?	?	?	?	?	?	?	?	?	?	?	?	?	?	?	?	?	?	?	?	?	?	?	?	?	T	?	?	?	?	?	?	?	?	?	?	?	?	?	?	?	?	?
?	?	?	?	?	?	?	?	?	?	?	?	?	?	?	T	?	?	?	?	?	?	?	?	?	?	?	?	T	T	?	?	?	?	?	?	?	?	?	?	?	?	?	?	?	?	?	?	?	?	?	?	?	?	?	?	?	?	?	?
?	T	?	?	T	?	?	?	?	?	?	?	?	?	?	?	?	?	?	?	?	?	?	?	?	?	?	?	?	T	?	?	?	?	?	?	?	?	T	?	?	?	T	?	?	?	?	?	?	?	?	?	?	?	?	?	?	?	?	?
?	?	?	?	?	?	?	?	?	?	?	T	?	?	?	?	?	?	?	?	?	?	?	?	?	?	?	?	?	T	?	?	?	T	?	?	?	?	?	?	?	?	?	?	?	?	?	?	?	?	?	?	?	T	?	?	?	?	?	?
T	?	?	?	?	?	?	?	?	?	?	?	?	?	?	T	T	?	?	?	?	?	?	?	?	?	?	?	?	T	?	?	?	?	T	?	?	?	?	?	?	?	T	?	?	?	?	?	?	?	?	?	?	?	?	?	?	?	?	?
?	?	?	?	?	?	?	?	?	?	?	?	?	?	?	?	T	?	?	?	?	?	?	?	?	?	?	?	?	?	?	?	?	?	?	?	?	?	?	?	?	?	?	?	?	?	?	?	?	?	?	?	?	?	?	?	?	?	?	?
?	?	?	?	?	?	?	?	?	?	?	?	?	?	?	?	T	?	?	?	?	?	?	?	?	?	?	?	T	?	?	?	?	?	?	?	?	?	?	?	?	?	?	?	?	?	?	?	?	?	?	?	?	?	?	?	?	?	?	?
?	?	T	?	?	?	?	?	?	?	?	?	?	?	?	?	?	?	?	?	?	?	?	?	?	?	?	?	?	?	?	?	?	?	?	?	?	?	T	?	?	?	T	?	?	?	?	?	?	?	?	?	?	?	?	?	?	?	?	?
?	?	?	?	?	?	?	?	?	?	?	?	?	?	?	?	?	?	?	?	?	?	?	?	?	?	?	?	T	?	?	?	?	?	?	?	?	?	?	?	?	?	?	?	?	?	?	?	?	?	?	?	?	?	?	?	?	?	?	?
?	?	T	?	?	?	?	?	?	?	?	?	?	?	?	?	?	?	?	?	?	?	?	?	?	?	?	?	?	?	T	?	?	?	?	?	?	?	?	?	?	?	?	?	?	?	?	?	?	?	?	?	?	?	?	?	?	?	?	?
?	?	T	?	?	?	?	?	?	?	?	?	?	?	?	?	?	?	?	?	?	?	?	?	?	?	?	?	T	?	?	?	?	?	?	?	?	?	T	?	?	?	?	?	?	?	?	?	?	?	?	?	?	?	?	?	?	?	?	?
?	?	?	?	?	?	?	?	?	?	?	?	?	?	?	T	?	?	?	?	?	?	?	?	?	?	?	?	T	?	?	?	?	?	?	?	?	?	T	?	?	?	?	?	?	?	?	?	?	?	?	?	?	?	?	?	?	?	?	?
?	?	?	?	?	?	?	?	?	?	?	?	?	?	?	?	T	?	?	?	?	?	?	?	?	?	?	?	?	?	?	?	?	?	?	?	?	?	?	?	?	?	?	?	?	?	?	?	?	?	?	?	?	?	?	?	?	?	?	?
?	?	?	?	?	?	?	?	?	?	?	?	?	?	T	?	?	?	?	?	?	?	?	?	?	?	?	?	?	?	?	?	?	?	?	?	?	?	T	?	?	?	T	?	?	?	?	?	?	T	?	?	?	?	?	?	?	?	?	?
?	T	?	?	?	?	?	?	?	?	?	?	?	?	?	?	T	?	?	?	?	?	?	?	?	?	?	?	?	?	?	?	?	?	T	?	?	?	?	?	?	?	?	?	?	?	?	?	?	?	?	?	?	?	?	?	?	?	?	?
?	?	?	?	?	?	?	?	?	?	?	?	T	?	?	?	?	?	?	?	?	?	?	?	?	?	?	?	T	?	?	?	?	?	?	?	?	?	?	?	?	?	?	?	?	?	?	?	?	?	?	?	?	?	?	?	?	?	?	?
?	?	?	?	?	?	?	?	?	?	?	?	?	?	?	?	?	?	?	?	?	?	?	?	?	?	?	?	T	?	?	T	?	?	?	?	?	?	T	?	?	?	?	?	?	?	?	?	?	?	?	?	?	?	?	?	?	?	?	?
?	T	?	?	?	?	?	?	?	?	?	?	?	?	?	?	?	?	?	?	?	?	?	?	T	?	?	?	?	?	?	?	?	?	?	?	?	?	?	?	?	?	?	?	?	?	?	?	?	?	?	?	?	?	?	?	?	?	?	?
?	?	T	?	?	?	?	?	?	?	?	?	?	?	?	?	?	?	?	?	?	?	?	?	?	?	?	?	T	T	?	?	?	?	?	?	?	?	?	?	?	?	?	?	?	?	?	?	?	?	?	?	?	?	?	?	?	?	?	?
?	?	?	?	?	?	?	?	?	?	?	?	?	?	T	?	T	?	?	?	?	T	?	?	?	?	?	?	T	?	?	?	?	?	?	?	?	?	?	?	?	?	?	?	?	?	?	?	?	?	?	?	?	?	?	?	?	?	?	?
?	?	?	?	?	?	?	?	?	?	?	?	?	?	?	?	T	?	?	?	?	?	?	?	?	?	?	?	?	?	?	?	?	?	T	?	?	?	?	?	?	?	?	?	?	?	?	?	?	?	?	?	?	?	?	?	T	?	?	?
?	?	T	?	?	?	?	?	?	?	?	?	?	?	?	T	T	?	?	?	?	?	?	?	T	?	?	?	?	?	?	?	?	?	T	?	?	?	?	?	?	?	?	?	?	?	?	?	?	?	?	?	?	?	?	?	?	?	?	?
?	T	?	?	?	?	?	?	?	?	?	?	?	?	?	?	?	?	?	?	?	?	?	?	?	?	?	?	?	?	?	?	?	?	?	?	?	?	?	?	?	?	T	?	?	?	?	?	?	?	?	?	?	?	?	?	?	?	?	?
?	?	?	?	?	?	?	?	?	?	?	?	?	?	?	?	?	?	?	?	?	?	?	?	?	?	?	?	T	?	?	?	?	?	?	?	?	?	?	?	?	?	?	?	?	?	?	?	?	?	?	?	?	?	?	?	?	?	?	?
?	?	?	?	?	?	?	?	?	?	?	?	?	?	?	?	?	?	?	?	?	?	?	?	?	?	?	?	?	?	?	?	?	?	T	?	?	?	?	?	?	?	?	?	?	?	?	?	?	?	?	?	?	?	T	?	?	?	?	?
?	?	?	?	?	?	?	?	?	?	?	?	?	?	?	T	?	?	?	?	?	?	?	?	?	?	?	?	?	T	?	?	?	?	?	?	?	?	?	?	?	?	?	T	?	?	?	?	?	?	?	?	?	?	?	?	?	?	?	?
?	?	?	?	?	?	?	?	?	?	?	?	?	?	?	?	?	?	?	?	?	?	?	?	?	?	?	?	T	T	?	?	?	?	?	?	?	?	?	?	?	?	?	?	?	?	?	?	?	?	?	?	?	?	?	?	?	?	?	?
?	?	T	T	?	?	?	?	?	?	?	?	?	?	?	?	T	?	?	?	?	?	?	?	?	?	?	?	?	?	?	?	?	?	?	?	?	?	?	?	?	?	T	?	?	?	?	?	?	?	?	?	?	?	?	?	?	?	?	?
?	T	?	?	?	?	?	?	?	?	?	?	?	?	?	T	?	?	?	?	?	?	?	?	?	?	?	?	T	?	?	?	?	?	?	?	?	?	T	?	?	?	?	?	?	?	?	?	?	?	?	?	?	?	T	?	?	?	?	?
?	?	?	?	?	?	?	?	?	?	?	?	?	?	?	?	?	?	?	?	?	?	?	?	?	?	?	?	?	?	?	?	?	?	?	?	T	?	T	?	?	?	?	?	?	?	?	?	?	?	?	?	?	?	?	T	?	?	?	?
?	?	?	?	?	?	?	?	?	?	?	?	?	?	?	?	T	?	?	?	?	?	?	?	?	?	?	?	?	?	?	?	?	?	?	?	?	?	?	?	?	?	?	?	?	?	?	?	?	?	?	?	?	?	?	?	?	?	?	?
?	?	?	?	?	?	?	?	?	?	?	?	?	?	?	?	?	?	?	?	?	?	?	?	?	?	?	?	?	?	?	?	?	?	?	?	?	?	T	?	?	?	?	?	?	?	?	?	?	?	?	?	?	?	?	?	?	?	T	?
?	T	?	?	?	?	?	?	?	?	?	?	?	?	?	?	?	?	?	?	?	?	?	?	?	?	?	?	?	?	?	?	?	?	?	?	?	?	?	?	?	?	?	?	?	?	?	?	?	?	?	?	?	?	?	?	?	?	?	?
?	?	?	?	?	?	?	?	?	?	?	?	?	?	?	?	?	?	?	?	?	?	?	?	?	?	?	?	?	?	?	?	?	?	?	?	?	?	?	?	?	?	?	?	?	?	?	?	?	?	?	?	?	T	?	?	?	?	?	?
?	?	?	?	?	?	?	?	?	?	?	?	?	?	?	?	?	?	?	?	?	?	?	?	?	?	?	?	T	?	?	?	?	?	?	?	?	?	?	?	?	?	?	?	?	?	?	?	?	?	?	?	?	?	?	?	?	?	?	?
?	?	?	?	?	?	?	?	?	?	?	?	?	?	T	?	?	?	?	?	?	?	?	?	?	?	?	?	?	?	?	T	?	?	?	?	?	?	?	?	?	?	T	?	?	?	?	?	?	?	?	?	?	?	?	?	?	?	?	?
?	T	?	?	?	?	?	?	?	?	?	?	?	?	?	?	?	?	?	?	?	T	?	?	?	?	?	?	?	?	?	?	?	?	?	?	?	?	?	?	?	?	?	?	?	?	?	?	T	?	?	?	?	?	?	?	?	?	?	?
?	T	?	?	?	?	?	?	?	?	?	?	?	?	?	?	?	?	?	?	?	?	?	?	?	?	?	?	T	?	?	?	?	?	?	?	?	?	T	?	?	?	?	?	?	?	?	?	?	?	?	?	?	?	?	?	?	?	?	?
?	?	?	?	?	?	?	?	?	?	?	?	?	?	?	?	?	?	?	?	?	?	?	?	?	?	?	?	?	?	?	?	?	?	T	?	?	?	?	?	?	?	?	?	?	?	?	?	?	?	?	?	?	?	?	?	?	?	?	?
?	?	?	T	?	?	?	?	?	T	?	?	?	?	?	?	?	?	?	?	?	?	?	?	?	?	?	?	?	?	?	?	?	?	?	?	?	?	?	?	?	?	?	?	?	?	?	?	?	?	?	?	?	?	?	?	?	?	?	?
?	?	?	?	?	?	?	?	?	?	?	?	?	?	?	?	?	T	?	?	?	?	?	?	?	?	?	?	?	?	?	?	?	?	?	?	?	?	T	?	?	?	?	?	?	?	?	?	?	?	?	?	?	?	?	?	?	?	?	?
?	?	?	?	?	?	?	?	?	?	?	?	?	?	?	?	?	?	?	?	?	?	?	?	?	?	?	?	T	?	?	?	?	?	?	?	?	?	?	?	?	?	?	?	?	?	?	?	?	?	?	?	?	?	?	?	?	?	?	?
?	?	?	?	?	?	?	?	?	?	?	?	?	?	?	?	?	?	?	?	?	?	?	?	?	?	?	?	T	?	?	?	?	?	?	?	?	?	?	?	?	?	?	?	?	?	?	?	?	?	?	?	?	?	?	?	?	?	?	?
?	?	?	?	?	?	?	?	?	?	?	?	?	?	?	T	?	?	?	?	?	?	?	?	?	?	?	?	?	?	?	?	?	?	T	?	?	?	?	?	?	?	?	?	?	?	?	?	?	?	?	?	?	?	?	?	?	?	?	?
?	?	?	?	?	?	?	?	?	?	?	?	?	?	?	?	?	?	?	?	?	?	?	?	?	?	?	?	?	T	?	?	?	?	?	?	?	?	?	?	?	?	T	T	?	?	?	?	?	?	?	?	?	?	?	?	?	?	?	?
?	T	?	?	?	?	?	?	?	?	?	?	?	?	?	?	?	?	?	?	?	?	?	?	?	?	?	?	?	?	?	?	?	?	?	?	?	?	?	?	?	?	?	T	?	?	?	?	?	?	?	?	?	?	?	?	?	?	?	?
?	?	?	?	?	?	?	?	?	?	?	?	?	?	?	T	?	?	?	?	?	?	?	?	?	?	?	?	?	?	?	?	?	?	T	?	?	?	?	?	?	?	?	?	?	?	?	?	T	?	?	?	?	?	?	?	?	?	?	?
?	?	?	?	?	?	?	?	?	?	?	?	?	?	?	?	?	?	?	?	?	?	?	?	?	?	?	?	T	?	?	?	?	?	?	?	?	?	?	?	?	?	?	?	?	?	?	?	?	?	?	?	?	?	?	?	?	?	?	?
?	T	?	?	?	?	?	?	?	?	?	?	?	?	?	?	T	?	?	?	?	?	?	?	T	?	?	?	?	?	?	?	?	?	?	?	?	?	?	?	?	?	?	?	?	?	?	?	?	?	?	?	?	?	?	?	?	?	?	?
?	?	?	?	?	?	?	?	?	?	?	?	?	?	?	?	T	?	?	?	?	?	?	?	?	?	?	?	T	?	?	?	?	?	?	?	?	?	?	?	?	?	?	?	?	?	?	?	?	?	?	?	?	?	?	?	?	?	?	?
?	?	?	?	?	?	?	?	?	?	?	?	?	?	?	?	?	?	?	?	?	?	?	?	T	?	?	?	T	?	?	?	?	?	?	?	?	?	?	?	?	?	?	?	?	?	?	?	?	?	?	?	?	?	?	?	?	?	?	?
?	T	T	?	?	?	?	?	?	?	?	?	?	?	?	?	?	?	?	?	?	?	T	?	?	?	?	?	?	?	?	?	?	?	?	?	?	?	?	?	?	?	?	?	?	?	?	?	?	?	?	?	?	?	?	?	?	?	?	?
?	?	?	?	?	?	?	?	?	?	?	?	?	?	?	?	T	?	?	?	?	?	?	?	?	?	?	?	?	?	?	?	?	?	?	?	?	?	?	?	?	?	?	?	?	?	?	?	?	?	?	?	?	?	?	?	?	?	?	?
?	?	?	?	?	?	?	?	?	?	?	?	?	?	?	?	?	?	?	?	?	?	?	?	?	?	?	?	T	T	?	?	?	?	?	?	?	?	?	?	?	?	?	?	?	?	?	?	?	?	?	?	?	?	?	?	?	?	?	?
?	?	?	?	?	?	?	?	?	?	?	?	?	?	?	?	?	?	?	?	?	?	?	?	?	?	?	?	?	?	?	?	?	?	?	?	?	?	T	?	?	?	?	?	?	?	?	?	?	?	?	?	?	?	?	?	?	?	?	?
?	?	?	?	?	?	?	?	?	?	?	?	?	?	?	?	T	?	?	?	?	?	?	?	?	?	?	?	?	?	?	?	?	?	?	?	?	?	?	?	?	?	?	?	?	?	?	?	?	?	?	?	?	?	?	?	?	?	?	?
?	?	?	?	?	?	?	?	?	?	?	?	?	?	?	?	?	?	?	?	T	?	?	?	?	?	?	?	?	?	?	?	?	?	?	?	?	?	T	?	?	?	?	?	?	?	?	?	?	?	?	?	?	?	?	T	T	?	?	?
?	?	?	?	?	?	?	?	?	?	?	?	?	?	?	?	T	?	?	?	?	?	?	?	?	?	?	?	?	?	?	?	?	?	?	?	?	?	?	?	?	?	?	?	?	?	?	?	?	?	?	?	?	?	?	?	?	?	?	?
?	T	?	?	?	?	?	?	?	?	?	?	?	?	?	?	T	?	?	?	?	?	?	?	?	?	?	?	T	?	?	?	?	?	?	?	?	?	T	?	?	?	?	?	?	?	?	?	?	?	?	?	?	?	?	?	?	?	?	?
?	?	?	?	?	?	?	?	?	?	?	?	?	?	?	?	?	?	?	?	?	?	?	?	T	?	?	?	?	?	?	?	?	?	?	?	?	?	?	?	?	?	?	?	?	?	?	?	?	?	?	T	?	?	?	?	?	?	?	?
?	?	?	?	?	?	?	?	?	?	?	?	?	?	?	?	?	?	?	?	T	?	?	?	T	?	?	?	?	?	?	?	?	?	T	?	?	?	?	?	?	?	T	?	?	?	?	?	?	?	?	?	?	?	?	?	?	?	?	?
?	?	T	?	?	?	?	?	?	?	?	?	?	?	?	?	?	?	?	?	?	?	?	?	?	?	?	?	?	?	?	?	?	?	T	?	?	?	?	?	?	?	?	?	?	?	?	?	?	?	?	?	?	T	?	?	?	?	?	?
?	?	T	?	?	?	?	?	?	?	?	?	?	?	?	?	?	?	?	?	?	?	?	?	?	?	?	?	?	?	?	?	?	?	T	?	?	?	T	?	?	?	?	?	?	?	?	?	?	?	?	?	?	?	?	?	?	?	?	?
?	?	?	?	?	?	?	?	?	?	?	T	?	?	?	T	?	?	?	?	?	?	?	?	?	?	?	?	?	?	?	?	?	T	?	?	?	?	?	?	?	?	T	T	?	?	?	?	?	?	?	?	?	?	?	?	?	?	?	?
?	T	?	?	?	?	?	?	?	?	?	?	T	?	?	?	T	?	?	?	T	?	?	?	?	?	?	?	T	?	?	?	?	?	?	?	?	?	T	T	?	?	?	?	?	?	?	?	?	?	?	?	?	?	?	?	?	?	?	?
?	?	T	?	?	?	?	?	?	?	?	?	?	?	?	?	?	T	?	?	T	?	?	?	?	?	?	?	?	T	?	?	?	?	?	?	?	?	?	T	?	?	?	T	?	?	?	?	?	?	?	?	?	?	?	?	?	?	?	?
?	T	?	?	?	?	?	?	?	?	?	?	?	?	?	?	T	T	?	?	?	?	?	?	?	?	?	?	T	?	?	?	?	?	?	?	?	?	T	?	?	?	?	?	?	?	?	?	?	?	?	?	?	?	?	?	?	?	?	?
?	?	T	?	?	?	?	?	?	?	?	?	?	?	?	?	?	?	?	?	?	?	?	?	?	?	?	?	?	?	?	?	?	?	T	?	?	?	?	?	?	?	?	?	?	?	?	?	?	?	?	?	?	?	?	?	?	?	?	?
?	?	?	?	?	?	?	?	?	?	?	?	?	?	?	?	T	?	?	?	?	?	?	?	?	?	?	?	?	?	?	?	?	?	?	?	?	?	?	?	?	?	T	?	?	?	?	?	?	?	?	?	?	?	?	?	?	?	?	?
?	?	?	?	?	?	?	?	?	?	?	?	?	?	?	T	T	?	?	?	?	?	?	?	?	?	?	?	?	?	?	?	?	?	?	?	?	?	?	?	?	?	T	?	?	?	?	?	?	?	?	?	?	?	?	?	?	?	?	?
?	T	?	?	?	?	?	?	?	?	?	?	?	?	T	?	?	?	?	?	?	?	?	?	?	?	?	?	?	?	?	?	?	?	T	?	?	?	?	?	?	?	?	?	?	?	?	?	?	?	?	?	?	?	?	?	?	?	?	?
?	T	?	?	?	?	?	?	?	?	?	?	?	?	?	?	?	?	?	?	?	?	?	?	?	?	?	?	?	?	?	?	?	?	?	?	?	?	?	?	?	?	?	T	?	?	?	?	?	?	?	?	?	?	?	?	?	?	?	?
?	?	?	?	?	?	?	?	?	?	?	?	?	?	?	?	?	?	?	?	?	?	?	?	?	?	?	?	?	?	?	?	?	?	?	?	?	?	T	?	?	?	?	?	?	?	?	?	?	?	?	?	?	?	?	?	?	?	?	?
?	?	T	?	?	?	?	?	?	?	?	?	?	?	?	?	?	?	?	?	?	?	?	?	?	?	?	?	?	T	?	?	?	?	T	?	?	?	?	?	?	?	?	?	?	?	?	?	?	?	?	T	?	?	T	?	?	?	?	?
?	T	?	?	?	?	?	?	?	?	?	?	?	?	?	?	?	?	?	?	?	?	?	?	?	?	?	?	?	?	?	?	?	?	?	?	?	?	?	?	?	?	?	?	?	?	?	?	?	?	?	?	?	?	?	?	?	?	?	?
?	?	?	?	?	?	?	?	?	?	?	?	?	?	?	?	?	?	?	?	?	?	?	?	?	?	?	?	T	?	?	?	?	?	?	?	?	?	?	?	?	?	?	?	?	?	?	?	?	?	?	?	?	?	?	?	?	?	?	?
?	?	?	?	?	?	?	?	?	?	?	?	?	?	?	?	T	?	?	?	?	?	?	?	?	?	?	?	?	?	?	?	?	?	?	?	?	?	?	?	?	?	?	?	?	?	?	?	?	?	?	?	?	?	?	?	?	?	?	?
?	?	T	?	?	?	?	?	?	?	?	?	?	?	?	?	T	?	?	?	?	?	?	?	?	?	?	?	?	?	?	?	?	?	T	?	?	?	?	?	?	?	T	?	?	?	?	?	?	?	?	?	?	?	?	?	?	?	?	?
?	?	?	?	?	?	?	?	?	?	?	?	?	?	?	?	T	?	?	?	?	?	?	?	?	?	?	?	?	?	?	?	?	?	?	?	?	?	?	?	?	?	?	?	?	?	?	?	?	?	?	?	?	?	?	?	?	?	?	?
?	?	?	?	?	?	?	?	?	?	?	?	?	?	?	?	?	?	?	?	?	?	?	?	?	?	?	?	?	?	?	?	?	?	?	?	?	?	T	?	?	?	?	?	?	?	?	?	?	?	?	?	?	?	?	?	?	?	?	?
?	?	T	?	?	?	?	?	?	?	?	?	?	?	?	?	?	T	?	?	?	?	?	?	?	?	?	?	T	?	?	?	?	?	?	?	?	?	T	?	?	?	?	?	?	?	?	?	?	?	?	?	?	?	?	?	?	?	?	?
?	?	?	?	?	?	?	?	?	?	?	?	?	?	?	?	?	?	?	?	?	?	?	?	?	?	?	?	?	?	?	?	?	?	T	?	?	?	?	?	?	?	?	?	?	?	?	?	?	?	?	?	?	?	?	?	?	?	?	?
?	?	?	?	?	?	?	?	?	?	?	?	?	?	?	?	T	?	?	?	?	?	?	?	?	?	?	?	?	?	?	?	?	?	?	?	?	?	?	?	?	?	T	?	?	?	?	?	?	?	?	?	?	?	?	?	?	?	?	?
