@relation crimelabaccidentaldrugdeathsextract

@attribute Age numeric
@attribute Sex {Male,Female}
@attribute Race {Asian,Black,Hispanic,Indian,'Middle Eastern',Other,Unidentified,White}
@attribute 'Incident Zip' {15001,15003,15005,15006,15007,15010,15012,15014,15017,15018,15020,15021,15022,15024,15025,15026,15030,15031,15034,15035,15037,15041,15044,15045,15046,15047,15049,15051,15056,15057,15058,15063,15064,15065,15066,15068,15071,15076,15081,15083,15084,15085,15086,15090,15101,15102,15104,15106,15108,15110,15112,15116,15120,15122,15124,15126,15129,15131,15132,15133,15135,15136,15137,15139,15140,15142,15143,15144,15145,15146,15147,15148,15201,15202,15203,15204,15205,15206,15207,15208,15209,15210,15211,15212,15213,15214,15215,15216,15217,15218,15219,15220,15221,15222,15223,15224,15225,15226,15227,15228,15229,15231,15232,15233,15234,15235,15236,15237,15238,15239,15240,15241,15243,15275,15282,15290,15301,15315,15332,15336,15367,15401,15436,15612,15613,15618,15632,15636,15642,15666,15668,15690,15701,15924,16046,16049,16055,16059,16066,16101,16117,16137,16146,16201,16229,16362,16403,26062,26301,43920,?}
@attribute 'Decedent Zip' {?,13219,15071,15001,15003,15005,15007,15010,15012,15014,15017,15018,15020,15021,15022,15024,15025,15026,15031,15033,15034,15035,15037,15038,15041,15042,15044,15045,15046,15047,15049,15051,15052,15056,15057,15058,15061,15063,15064,15065,15066,15068,15074,15076,15081,15083,15084,15085,15086,15088,15089,15090,15101,15102,15104,15106,15108,15110,15112,15116,15120,15122,15124,15126,15129,15131,15132,15133,15135,15136,15137,15139,15140,15142,15143,15144,15145,15146,15147,15148,15162,15201,15202,15203,15204,15205,15206,15207,15208,15209,15210,15211,15212,15213,15214,15215,15216,15217,15218,15219,15220,15221,15222,15223,15224,15225,15226,15227,15228,15229,15232,15233,15234,15235,15236,15237,15238,15239,15241,15243,15301,15315,15317,15330,15332,15336,15340,15342,15344,15367,15401,15413,15431,15436,15458,15554,15601,15611,15612,15613,15618,15626,15627,15632,15636,15642,15644,15650,15656,15666,15668,15670,15690,15697,15701,15717,15767,15924,15944,16001,16028,16046,16055,16057,16059,16061,16066,16101,16117,16134,16146,16210,16226,16228,16229,16230,16239,16242,16254,16255,16301,16316,16323,16335,16341,16350,16362,16373,16403,16407,16503,16508,17011,17043,17070,17202,17401,17569,17701,18901,18902,19380,20707,21045,22003,22204,26034,26062,26302,26505,28307,28345,28428,29577,33406,33467,34222,36610,39532,40504,43920,43952,43953,43964,44444,44510,44705,44870,45429,45776,48221,55347,56345,57108,61539,80246,85024,85379}
@attribute 'Acetaminophen' {T}
@attribute 'Alcohol' {T}
@attribute 'Alprazolam' {T}
@attribute 'Amitriptyline' {T}
@attribute 'Amphetamines' {T}
@attribute 'Benzodiazepines' {T}
@attribute 'Benzoylecgonine' {T}
@attribute 'Bupropion' {T}
@attribute 'Butalbital' {T}
@attribute 'Carbamazepine' {T}
@attribute 'Carbon Monoxide' {T}
@attribute 'Carisoprodol' {T}
@attribute 'Chlordiazepoxide' {T}
@attribute 'Chlorpheniramine' {T}
@attribute 'Citalopram' {T}
@attribute 'Clonazepam' {T}
@attribute 'Cocaine' {T}
@attribute 'Codeine' {T}
@attribute 'Cyclobenzaprine' {T}
@attribute 'Dextromethorphan' {T}
@attribute 'Diazepam' {T}
@attribute 'Diphenhydramine' {T}
@attribute 'Doxepin' {T}
@attribute 'Ethylene Glycol' {T}
@attribute 'Fentanyl' {T}
@attribute 'Fluoxetine' {T}
@attribute 'Gama-Hydroxybutyric Acid' {T}
@attribute 'Glucophage' {T}
@attribute 'Heroin' {T}
@attribute 'Hydrocodone' {T}
@attribute 'Hydromorphone' {T}
@attribute 'Lamotrigine' {T}
@attribute 'Mephobarbital' {T}
@attribute 'Meprobamate' {T}
@attribute 'Methadone' {T}
@attribute 'Methamphetamine' {T}
@attribute 'Midazolam' {T}
@attribute 'Mirtazapine' {T}
@attribute 'Morphine' {T}
@attribute 'Nordiazepam' {T}
@attribute 'Norpropoxyphene' {T}
@attribute 'Opiates' {T}
@attribute 'Oxycodone' {T}
@attribute 'Oxymorphone' {T}
@attribute 'Paroxetine' {T}
@attribute 'Phencyclidine' {T}
@attribute 'Phenobarbital' {T}
@attribute 'Promethazine' {T}
@attribute 'Propoxyphene' {T}
@attribute 'Quetiapine' {T}
@attribute 'Sertraline' {T}
@attribute 'Temazepam' {T}
@attribute 'Topiramate' {T}
@attribute 'Tramadol' {T}
@attribute 'Trazodone' {T}
@attribute 'Valproic Acid' {T}
@attribute 'Venlafaxine' {T}
@attribute 'Verapamil' {T}
@attribute 'Zolpidem' {T}
@attribute 'Zopiclone' {T}

@data
57,Male,Black,15219,15202,?,T,?,?,?,?,?,?,?,?,?,?,?,?,?,?,T,?,?,?,?,?,?,?,T,?,?,?,?,?,?,?,?,?,?,?,?,?,?,?,?,?,?,?,?,?,?,?,?,?,?,?,?,?,?,?,?,?,?,?
39,Male,White,15216,15216,?,?,?,T,?,?,?,?,?,?,?,?,?,?,?,?,?,?,?,?,?,?,?,?,?,?,?,?,T,?,?,?,?,?,?,?,?,?,?,?,?,?,?,T,?,?,?,?,?,?,?,?,?,?,?,?,?,?,?,?
20,Male,White,15101,15101,?,?,?,?,?,?,?,?,?,?,?,?,?,?,?,?,?,?,?,?,?,T,?,?,T,?,?,?,?,?,?,?,?,?,?,?,?,T,?,?,?,?,?,?,?,?,?,?,?,?,?,?,?,?,?,?,?,?,?,?
28,Male,White,15210,15210,?,?,?,?,?,?,?,?,?,?,?,?,?,?,?,?,?,?,?,?,?,?,?,?,T,?,?,?,T,?,?,?,?,?,?,?,?,?,?,?,?,?,?,?,?,?,?,?,?,?,?,?,?,?,?,?,?,?,?,?
29,Male,White,15206,15206,?,?,?,?,?,?,?,?,?,?,?,?,?,?,?,?,?,?,?,?,?,?,?,?,T,?,?,?,?,?,?,?,?,?,?,?,?,?,?,?,?,?,?,?,?,?,?,?,?,?,?,?,?,?,?,?,?,?,?,?
51,Male,White,15136,15136,?,?,?,?,?,?,?,?,?,?,?,?,?,?,?,?,?,?,?,?,?,?,?,?,T,?,?,?,T,?,?,?,?,?,?,?,?,?,?,?,?,?,?,?,?,?,?,?,?,?,?,?,?,?,?,?,?,?,?,?
53,Male,White,15136,15136,?,T,?,?,?,?,?,?,?,?,?,?,?,?,?,?,?,?,?,?,?,?,?,?,T,?,?,?,?,?,?,?,?,?,?,?,?,?,?,?,?,?,?,?,?,?,?,?,?,?,?,?,?,?,?,?,?,?,?,?
45,Male,White,15229,15201,?,T,?,?,?,?,?,?,?,?,?,?,?,?,?,?,T,?,?,?,?,?,?,?,T,?,?,?,?,?,?,?,?,?,?,?,?,?,?,?,?,?,?,?,?,?,?,?,?,?,?,?,?,?,?,?,?,?,?,?
28,Female,White,15236,15236,?,?,T,?,?,?,?,T,?,?,?,?,?,?,?,?,?,?,?,?,T,?,?,?,?,?,?,?,T,?,?,?,?,?,?,?,?,?,?,?,?,?,?,?,?,?,?,?,?,?,?,?,?,?,?,?,?,?,?,?
59,Female,White,15237,15239,?,?,?,?,?,?,?,?,?,?,?,?,?,?,?,?,?,?,?,?,?,?,?,?,?,?,?,?,?,?,?,?,?,?,T,?,?,?,?,?,?,?,?,?,?,?,?,?,?,?,?,?,?,?,?,?,?,?,?,?
34,Female,White,15044,15044,?,?,?,?,?,?,?,?,?,?,?,?,?,?,?,?,?,?,?,?,?,?,?,?,T,?,?,?,?,?,?,?,?,?,?,?,?,?,?,?,?,?,?,?,?,?,?,?,?,?,?,?,?,?,?,?,?,?,?,?
37,Male,White,15084,15084,?,?,T,?,?,?,?,?,?,?,?,?,?,?,?,?,?,?,?,?,?,?,?,?,T,?,?,?,T,?,?,?,?,?,?,?,?,?,?,?,?,?,?,?,?,?,?,?,?,?,?,?,?,?,?,?,?,?,?,?
58,Female,White,15126,15126,?,?,?,?,?,?,?,?,?,?,?,?,?,?,?,?,?,?,?,?,?,T,?,?,?,?,?,?,?,?,?,?,?,?,?,?,?,?,?,?,?,?,?,T,?,?,?,?,?,?,?,T,?,?,?,?,?,?,?,?
58,Female,White,15140,15140,?,?,?,?,?,?,?,?,?,?,?,?,?,?,?,?,?,?,?,?,?,?,?,?,T,?,?,?,?,?,?,?,?,?,?,?,?,?,?,?,?,?,?,?,?,?,?,?,?,?,?,?,?,?,?,?,?,?,?,?
47,Male,White,15215,15215,?,?,?,?,?,?,?,?,?,?,?,?,?,?,?,?,?,?,?,?,?,?,?,?,T,?,?,?,?,?,?,?,?,?,?,?,?,?,?,?,?,?,?,?,?,?,?,?,?,?,?,?,?,?,?,?,?,?,?,?
50,Female,White,15212,15212,?,?,?,?,?,?,?,T,?,?,?,?,?,?,?,?,?,?,?,?,?,?,?,?,?,?,?,?,?,?,?,?,?,?,?,?,?,?,?,?,?,?,?,?,?,?,?,?,?,?,?,?,?,?,?,?,?,?,?,?
58,Female,White,15106,15106,?,?,?,?,?,?,?,?,?,?,?,?,?,?,?,?,T,?,?,?,T,?,?,?,T,?,?,?,?,?,?,?,?,?,?,?,?,?,?,?,?,?,?,?,?,?,?,?,?,?,?,?,?,?,?,?,?,?,?,?
37,Male,White,15136,15136,?,?,?,?,?,?,?,?,?,?,?,?,?,?,?,?,T,T,?,?,?,?,?,?,T,?,?,?,T,?,?,?,?,?,?,?,?,?,?,?,?,?,?,?,?,?,?,?,?,?,?,?,?,?,T,?,?,?,?,?
25,Female,White,15219,15237,?,?,?,?,?,?,?,?,?,?,?,?,?,?,?,?,?,?,?,?,?,?,?,?,T,?,?,?,?,?,?,?,?,?,?,?,?,?,?,?,?,?,?,?,?,?,?,?,?,?,?,?,?,?,?,?,?,?,?,?
23,Female,White,15106,15106,?,?,?,?,?,?,?,?,?,?,?,?,?,?,?,?,?,?,?,?,?,?,?,?,T,?,?,?,T,?,?,?,?,?,?,?,?,?,?,?,?,?,?,?,?,?,?,?,?,?,?,?,?,?,?,?,?,?,?,?
25,Male,White,15229,15229,?,?,T,?,?,?,?,?,?,?,?,?,?,?,?,?,?,?,?,?,?,?,?,?,T,?,?,?,?,?,?,?,?,?,?,?,?,?,?,?,?,?,?,?,?,?,?,?,?,?,?,?,?,?,?,?,?,?,?,?
38,Male,White,15235,15235,?,?,?,?,?,?,?,T,?,?,?,?,?,?,?,?,?,?,?,T,T,T,?,?,T,T,?,?,?,?,?,?,?,?,?,?,?,?,?,?,?,?,?,?,?,?,?,?,?,?,?,?,?,?,?,?,?,?,?,?
38,Male,White,15132,15132,?,?,?,?,?,?,?,?,?,?,?,?,?,?,?,?,?,?,?,?,?,?,?,?,T,?,?,?,T,?,?,?,?,?,?,?,?,?,?,?,?,?,?,?,?,?,?,?,?,?,?,?,?,?,?,?,?,?,?,?
43,Male,White,15204,15204,?,?,?,?,?,?,?,?,?,?,?,?,?,?,?,?,?,?,?,?,?,?,?,?,T,?,?,?,?,?,?,?,?,?,?,?,?,?,?,?,?,?,?,?,?,?,?,?,?,?,?,?,?,?,?,?,?,?,?,?
30,Male,White,15132,15132,?,?,T,?,?,?,?,?,?,?,?,?,?,?,?,T,?,?,?,?,?,?,?,?,T,?,?,?,?,?,?,?,?,?,?,?,?,?,?,?,?,?,?,?,?,?,?,?,?,?,?,?,?,?,?,?,?,?,?,?
26,Male,White,15137,15137,?,?,T,?,?,?,?,?,?,?,?,?,?,?,?,?,T,?,?,?,?,?,?,?,?,?,?,?,?,?,?,?,?,?,?,?,?,?,?,?,?,?,T,?,?,?,?,?,?,?,?,?,?,?,?,?,?,?,?,?
48,Female,White,15035,15035,?,?,?,?,?,?,?,?,?,?,?,?,?,?,?,?,?,?,?,?,?,?,?,?,T,?,?,?,?,?,?,?,?,?,?,?,?,?,?,?,?,?,?,?,?,?,?,?,?,?,?,?,?,?,?,?,?,?,?,?
20,Female,White,15214,15214,?,?,?,?,?,?,?,?,?,?,?,?,?,?,?,?,?,?,?,?,?,?,?,?,T,?,?,?,?,?,?,?,?,?,?,?,?,?,?,?,?,?,?,?,?,?,?,?,?,?,?,?,?,?,?,?,?,?,?,?
33,Male,White,15210,15210,?,?,?,?,?,?,?,?,?,?,?,?,?,?,?,T,?,?,?,?,?,?,?,?,T,?,?,?,T,?,?,?,?,?,?,?,?,?,?,?,?,?,?,?,?,?,?,?,?,?,?,?,?,?,?,?,?,?,?,?
45,Female,White,15212,15212,?,?,?,?,?,?,?,?,?,?,?,?,?,?,?,T,T,?,?,?,?,T,?,?,T,?,?,?,?,?,?,?,?,?,?,?,?,T,?,?,?,?,?,?,?,?,?,?,?,?,?,?,?,?,?,?,?,?,?,?
50,Female,White,15205,15205,?,?,?,?,?,?,?,?,?,?,?,?,?,?,?,T,?,?,?,?,?,?,?,?,?,?,?,?,?,?,?,?,?,?,T,?,?,T,?,?,?,?,?,?,?,?,?,?,?,?,?,?,?,?,?,?,?,?,?,?
39,Female,White,15057,15057,?,?,?,?,?,?,?,?,?,?,?,?,?,?,?,?,?,?,?,?,?,?,?,?,T,?,?,?,?,?,?,?,?,?,?,?,?,?,?,?,?,?,?,?,?,?,?,?,?,?,?,?,?,?,?,?,?,?,?,?
49,Male,White,15017,15017,?,?,T,?,?,?,?,?,?,?,?,?,?,?,?,?,?,?,?,?,?,?,?,?,?,?,?,?,?,?,?,?,?,?,?,?,?,?,?,?,?,?,T,?,?,?,?,?,?,?,?,?,?,?,?,?,?,?,?,?
39,Male,White,15221,15212,?,?,?,?,?,?,?,?,?,?,?,?,?,?,?,?,?,?,?,?,?,?,?,?,T,?,?,?,?,?,?,?,?,?,?,?,?,?,?,?,?,?,?,?,?,?,?,?,?,?,?,?,?,?,?,?,?,?,?,?
65,Male,Black,15206,15206,?,T,?,?,?,?,?,?,?,?,?,?,?,?,?,?,?,?,?,?,?,?,?,?,?,?,?,?,T,?,?,?,?,?,T,?,?,?,?,?,?,?,?,?,?,?,?,?,?,?,?,?,?,?,?,?,?,?,?,?
37,Male,White,15215,15215,?,?,?,?,?,?,?,?,?,?,?,?,?,?,?,?,T,?,?,?,?,?,?,?,T,?,?,?,?,?,?,?,?,?,?,?,?,?,?,?,?,?,?,?,?,?,?,?,?,?,?,?,?,?,?,?,?,?,?,?
51,Male,White,15237,15237,?,?,?,?,?,?,?,?,?,?,?,?,?,?,?,?,?,?,?,?,?,?,?,?,T,?,?,?,?,?,?,?,?,?,?,?,?,?,T,?,?,?,?,?,?,?,?,?,?,?,?,?,?,?,?,?,T,?,?,?
58,Male,White,15012,15012,?,?,?,?,?,?,?,?,?,?,?,?,?,?,?,?,?,?,?,?,?,?,?,?,T,?,?,?,?,?,?,?,?,?,?,?,?,?,?,?,?,?,T,?,?,?,?,?,?,?,?,?,?,?,?,?,?,?,?,?
31,Male,White,15238,?,?,T,?,?,?,?,?,?,?,?,?,?,?,?,?,?,T,?,?,?,?,?,?,?,T,?,?,?,T,?,?,?,?,?,?,?,?,?,?,?,?,?,?,?,?,?,?,?,?,?,?,?,?,?,?,?,?,?,?,?
55,Male,White,15232,15232,?,T,?,?,?,?,?,?,?,?,?,?,?,?,?,?,T,?,?,?,?,?,?,?,?,?,?,?,?,?,?,?,?,?,?,?,?,?,?,?,?,?,?,?,?,?,?,?,?,?,?,?,?,?,?,?,?,?,?,?
39,Female,White,15148,15148,?,T,?,?,?,?,?,?,?,?,?,?,?,?,?,T,?,?,?,?,?,?,?,?,T,?,?,?,T,?,?,?,?,?,?,?,?,?,?,?,?,?,?,?,?,?,?,?,?,?,?,?,?,?,?,?,?,?,?,?
30,Male,White,15025,15025,?,?,?,?,?,?,?,?,?,?,?,?,?,?,?,?,?,?,?,?,?,?,?,?,T,?,?,?,?,?,?,?,?,?,?,T,?,?,?,?,?,?,?,?,?,?,?,?,?,?,?,?,?,?,?,?,?,?,?,?
24,Male,White,15226,15227,?,?,?,?,?,?,?,?,?,?,?,?,?,?,?,?,?,?,?,?,?,?,?,?,T,?,?,?,T,T,?,?,?,?,?,?,?,?,?,?,?,?,?,?,?,?,?,?,?,?,?,?,?,?,?,?,?,?,?,?
64,Female,White,15102,15102,?,?,?,?,?,?,?,?,?,?,?,?,?,?,?,?,?,?,?,?,?,?,?,?,T,?,?,?,?,?,?,?,?,?,?,?,?,?,?,?,?,?,?,?,?,?,?,?,?,?,?,?,?,?,?,?,?,?,?,?
26,Male,White,15236,15236,?,?,?,?,?,?,?,?,?,?,?,?,?,?,?,?,?,?,?,?,?,?,?,?,T,?,?,?,?,?,?,?,?,?,?,?,?,?,?,?,?,?,?,?,?,?,?,?,?,?,?,?,?,?,?,?,?,?,?,?
27,Female,White,15206,15214,?,?,?,?,?,?,?,?,?,?,?,?,?,?,?,?,T,?,?,?,T,?,?,?,T,?,?,?,T,?,?,?,?,?,?,?,?,?,?,?,?,?,?,?,?,?,?,?,?,?,?,?,?,?,?,?,?,?,?,?
27,Male,Black,15146,?,?,?,?,?,?,?,?,?,?,?,?,?,?,?,?,?,?,?,?,?,?,?,?,?,T,?,?,?,?,?,?,?,?,?,?,?,?,?,?,?,?,?,?,?,?,?,?,?,?,?,?,?,?,?,?,?,?,?,?,?
24,Male,White,15221,15035,?,?,?,?,?,?,?,?,?,?,?,?,?,?,?,?,?,?,?,?,?,?,?,?,T,?,?,?,T,?,?,?,?,?,?,?,?,?,?,?,?,?,?,?,?,?,?,?,?,?,?,?,?,?,?,?,?,?,?,?
30,Female,White,15238,15238,?,?,?,?,?,?,?,?,?,?,?,?,?,?,?,?,?,?,?,?,?,?,?,?,T,?,?,?,?,?,?,?,?,?,?,?,?,?,?,?,?,?,?,?,?,?,?,?,?,?,?,?,?,?,?,?,?,?,?,?
43,Male,Black,15132,15132,?,?,?,?,?,?,?,?,?,?,?,?,?,?,?,?,T,?,?,?,?,?,?,?,T,?,?,?,?,?,?,?,?,?,?,?,?,?,?,?,?,?,?,?,?,?,?,?,?,?,?,?,?,?,?,?,?,?,?,?
53,Male,White,15212,?,?,?,?,?,?,?,?,?,?,?,?,?,?,?,?,?,T,?,?,?,?,?,?,?,?,?,?,?,?,?,?,?,?,?,?,?,?,?,?,?,?,?,?,?,?,?,?,?,?,?,?,?,?,?,?,?,?,?,?,?
31,Male,White,15090,15090,?,T,?,?,?,?,?,?,?,?,?,?,?,?,?,?,T,?,?,?,?,?,?,?,T,?,?,?,?,?,?,?,?,?,?,?,?,?,?,?,?,?,?,?,?,?,?,?,?,?,?,?,?,?,?,?,?,?,?,?
47,Male,White,15120,15120,?,?,T,?,?,?,?,?,?,?,?,?,?,?,?,?,T,?,?,?,?,?,?,?,T,?,?,?,T,T,?,?,?,?,?,?,?,?,?,?,?,?,?,?,?,?,?,?,?,?,?,?,?,?,?,?,?,?,?,?
38,Female,White,15221,15210,?,?,T,?,?,?,?,?,?,?,?,?,?,?,?,?,?,?,?,?,?,?,?,?,T,?,?,?,T,?,?,?,?,?,?,?,?,?,?,?,?,?,?,?,?,?,?,?,?,?,?,?,?,?,?,?,?,?,?,?
39,Male,White,15221,15221,?,?,T,?,?,?,?,?,?,?,?,?,?,?,?,?,?,?,?,?,?,?,?,?,T,?,?,?,T,?,?,?,?,?,?,?,?,?,?,?,?,?,?,?,?,?,?,?,?,?,?,?,?,?,?,?,?,?,?,?
56,Male,White,15212,15212,?,?,?,?,?,?,?,?,?,?,?,?,?,?,?,?,T,?,?,?,?,?,?,?,?,?,?,?,?,?,?,?,?,?,?,?,?,?,?,?,?,?,?,?,?,?,?,?,?,?,?,?,?,?,?,?,?,?,?,?
40,Male,White,15120,15120,?,?,?,?,?,?,?,?,?,?,?,?,?,?,?,?,?,?,?,?,?,?,?,?,T,?,?,?,T,?,?,?,?,?,?,?,?,?,?,?,?,?,?,?,?,?,?,?,?,?,?,?,?,?,?,?,?,?,?,?
47,Male,White,15216,15136,?,?,?,?,?,?,?,?,?,?,?,?,?,?,?,?,?,?,?,?,?,?,?,?,T,?,?,?,T,?,?,?,?,?,?,?,?,?,?,?,?,?,?,?,?,?,?,?,?,?,?,?,?,?,?,?,?,?,?,?
29,Male,White,15222,15061,?,?,?,?,?,?,?,?,?,?,?,?,?,?,?,?,?,?,?,?,?,?,?,?,?,?,?,?,T,?,?,?,?,?,?,?,?,?,?,?,?,?,?,?,?,?,?,?,?,?,?,?,?,?,?,?,?,?,?,?
39,Male,White,15102,15102,?,?,?,?,?,?,?,?,?,?,?,?,?,?,?,?,T,?,?,?,?,?,?,?,T,?,?,?,T,?,?,?,?,?,?,?,?,?,?,?,?,?,?,?,?,?,?,?,?,?,?,?,?,?,?,?,?,?,?,?
52,Female,White,15122,15122,?,?,?,?,?,?,?,?,?,?,?,?,?,?,?,?,T,?,T,?,?,?,?,?,T,?,?,?,T,?,?,?,?,?,?,?,?,?,?,?,?,?,?,?,?,?,?,?,?,T,?,?,?,?,?,?,?,?,?,?
35,Female,White,15221,15221,?,?,?,?,?,?,?,?,?,?,?,?,?,?,?,?,?,?,?,?,?,?,?,?,T,?,?,?,?,?,?,?,?,?,?,?,?,?,?,?,?,?,?,?,?,?,?,?,?,?,?,?,?,?,?,?,?,?,?,?
54,Female,White,15217,15217,?,?,?,?,?,?,?,?,?,?,?,?,?,?,?,?,T,?,?,?,?,?,?,?,T,?,?,?,?,?,?,?,?,?,?,?,?,?,?,?,?,?,?,?,?,?,?,?,?,?,?,?,?,?,?,?,?,?,?,?
30,Female,White,15108,15108,?,?,?,T,?,?,?,?,?,?,?,?,?,?,?,?,T,?,?,?,?,?,?,?,T,?,?,?,?,?,?,?,?,?,?,?,?,?,?,?,?,?,?,?,?,?,?,?,?,?,?,?,?,?,?,?,?,?,?,?
28,Male,White,15071,15001,?,?,?,?,?,?,?,?,?,?,?,?,?,?,?,?,?,?,?,?,?,T,?,?,T,?,?,?,?,?,?,?,?,?,?,?,?,?,?,?,?,?,?,?,?,?,?,?,?,?,?,?,?,?,?,?,?,?,?,?
34,Male,White,15205,15205,?,?,?,?,?,?,?,?,?,?,?,?,?,?,?,?,?,?,?,?,?,?,?,?,?,?,?,?,?,?,?,?,?,?,T,?,?,?,?,?,?,?,?,?,?,?,?,?,?,?,?,?,?,?,?,?,?,?,?,?
37,Male,White,15205,15205,?,?,?,?,?,?,?,?,?,?,?,?,?,?,?,?,T,?,?,?,?,?,?,?,T,?,?,?,?,?,?,?,?,?,?,?,?,?,?,?,?,?,?,?,?,?,?,?,?,?,?,?,?,?,?,?,?,?,?,?
50,Male,White,15212,15212,?,?,?,?,?,?,?,?,?,?,?,?,?,?,?,?,?,?,?,?,?,?,?,?,T,?,?,?,?,?,?,?,?,?,T,?,?,?,?,?,?,?,?,?,?,?,?,?,?,?,?,?,?,?,?,?,?,?,?,?
57,Male,White,15120,15005,?,?,?,?,?,?,?,?,?,?,?,T,?,?,?,?,?,?,?,?,?,?,?,?,T,?,?,?,?,?,?,?,?,T,?,?,?,?,?,?,?,?,?,?,?,?,?,?,?,?,?,?,?,?,?,?,?,?,?,?
42,Female,White,15102,15102,?,?,T,?,?,?,?,?,?,?,?,?,?,?,?,?,T,?,?,?,?,?,?,?,?,?,?,?,?,?,?,?,?,?,?,?,?,?,?,?,?,?,?,T,?,?,?,?,?,?,?,?,?,?,?,?,?,?,?,?
29,Female,White,15205,15211,?,?,?,?,?,?,?,?,?,?,?,?,?,?,?,?,?,?,?,?,?,?,?,?,T,?,?,?,T,?,?,?,?,?,?,?,?,?,?,?,?,?,?,?,?,?,?,?,?,?,?,?,?,?,?,?,?,?,?,?
54,Male,White,15137,15137,?,?,?,?,?,?,?,?,?,?,?,?,?,?,?,?,?,?,?,?,T,?,?,?,T,?,?,?,?,?,?,?,?,?,?,?,?,?,?,?,?,?,T,?,?,?,?,?,?,?,?,?,?,?,?,?,?,?,?,?
60,Male,White,15120,15120,?,?,?,?,?,?,?,?,?,?,?,?,?,?,T,?,?,?,?,?,?,?,?,?,?,?,?,?,?,?,?,?,?,?,T,?,?,T,?,?,?,?,?,?,?,?,?,?,?,?,?,?,?,?,?,?,?,?,?,?
59,Male,White,15207,15207,?,?,?,?,?,?,?,?,?,?,?,?,?,?,?,?,?,?,?,?,?,?,?,?,T,?,?,?,T,?,?,?,?,?,?,?,?,?,?,?,?,?,?,?,?,?,?,?,?,?,?,?,?,?,?,?,?,?,?,?
45,Male,White,15212,15212,?,T,?,?,?,?,?,?,?,?,?,?,?,?,?,?,T,?,?,?,?,?,?,?,T,?,?,?,?,?,?,?,?,?,?,?,?,?,?,?,?,?,?,?,?,?,?,?,?,?,?,?,?,?,?,?,?,?,?,?
52,Female,White,15148,15148,?,?,?,?,?,?,?,?,?,?,?,?,?,?,?,?,?,?,?,?,?,?,?,?,T,?,?,?,?,?,?,?,?,?,?,?,?,?,T,?,?,?,?,?,?,?,?,?,?,?,?,?,?,?,?,?,?,?,?,?
21,Male,White,15216,15216,?,?,T,?,?,?,?,?,?,?,?,?,?,?,?,?,T,?,?,?,?,?,?,?,?,?,?,?,?,?,?,?,?,?,?,?,?,?,?,?,?,?,?,?,?,?,?,?,?,?,?,?,?,?,?,?,?,?,?,?
21,Male,Indian,15203,15203,?,?,T,?,?,?,?,?,?,?,?,?,?,?,?,?,?,?,?,?,?,?,?,?,T,?,?,?,?,?,?,?,?,?,?,?,?,?,?,?,?,?,?,?,?,?,?,?,?,?,?,?,?,?,?,?,?,?,?,?
22,Male,White,15126,15126,?,?,?,?,T,?,?,?,?,?,?,?,?,?,?,?,?,?,?,?,?,?,?,?,T,?,?,?,?,?,?,?,?,?,?,?,?,?,?,?,?,?,?,?,?,?,?,?,?,?,?,?,?,?,?,?,?,?,?,?
47,Female,White,15226,15226,?,?,?,?,?,?,?,?,?,?,?,?,?,?,?,?,?,?,?,?,?,?,?,?,T,?,?,?,?,?,?,?,?,?,?,?,?,?,?,?,?,?,?,?,?,?,?,?,?,?,?,?,?,?,?,?,?,?,?,?
69,Male,Black,15216,15216,?,?,?,?,?,?,?,?,?,?,?,?,?,?,?,?,?,?,?,?,?,?,?,?,T,?,?,?,T,?,?,?,?,?,?,?,?,?,?,?,?,?,?,?,?,?,?,?,?,?,?,?,?,?,?,?,?,?,?,?
38,Male,White,15084,15084,?,?,?,?,?,?,?,?,?,?,?,?,?,?,?,?,?,?,?,?,?,?,?,?,T,?,?,?,?,?,?,?,?,?,?,?,?,?,?,?,?,?,?,?,?,?,?,?,?,?,?,?,?,?,?,?,?,?,?,?
46,Male,White,15234,15203,?,T,?,?,?,?,?,?,?,?,?,?,?,?,?,?,?,?,?,?,?,?,?,?,T,?,?,?,?,?,?,?,?,?,?,?,?,?,?,?,?,?,?,?,?,?,?,?,?,?,?,?,?,?,?,?,?,?,?,?
57,Female,White,15143,15143,?,?,?,?,?,?,?,?,?,?,?,?,?,?,?,?,?,?,?,?,?,?,?,?,?,?,?,?,T,?,?,?,?,?,?,?,?,?,?,?,?,?,T,?,?,?,?,?,?,?,?,?,?,?,?,?,?,?,?,?
48,Female,White,15236,15102,?,?,T,?,?,?,?,?,?,?,?,?,?,?,?,?,?,?,?,?,?,?,?,?,T,?,?,?,?,?,?,?,?,?,?,?,?,?,?,?,?,?,T,?,?,?,?,?,?,T,?,?,?,?,?,?,?,?,?,?
68,Male,Black,15216,15216,?,T,?,?,?,?,?,?,?,?,?,?,?,?,?,?,?,?,?,?,?,?,?,?,T,?,?,?,?,?,?,?,?,?,?,?,?,?,?,?,?,?,?,?,?,?,?,?,?,?,?,?,?,?,?,?,?,?,?,?
34,Female,White,15227,15227,?,?,T,?,?,?,?,?,?,?,?,?,?,?,?,?,?,?,?,?,T,?,?,?,T,?,?,?,?,?,?,?,?,?,?,?,?,?,?,?,?,?,?,?,?,?,?,?,?,?,?,?,?,?,?,?,?,?,?,?
44,Female,White,15212,15212,?,?,T,?,?,?,?,?,?,?,?,?,?,?,?,?,T,?,?,?,?,?,?,?,T,?,?,?,T,?,?,?,?,?,?,?,?,?,?,?,?,?,?,?,?,?,?,?,?,?,?,?,?,?,?,?,?,?,?,?
36,Female,White,15210,15210,?,?,T,?,?,?,?,?,?,?,?,?,?,?,T,?,?,?,?,?,?,?,?,?,T,?,?,?,?,?,?,?,?,?,?,?,?,?,?,?,?,?,?,?,?,?,?,?,?,?,?,?,?,?,?,?,?,?,?,?
32,Female,White,15120,15120,?,T,?,T,?,?,?,?,?,?,?,?,?,?,?,?,?,?,?,?,?,?,?,?,T,?,?,?,?,?,?,?,?,?,?,?,?,?,?,?,?,?,?,?,?,?,?,?,?,?,?,?,?,?,?,?,?,?,?,?
34,Male,White,15148,15148,?,?,?,?,?,?,?,?,?,?,?,?,?,?,?,?,T,?,?,?,?,?,?,?,T,?,?,?,?,?,?,?,?,?,?,?,?,?,?,?,?,?,?,?,?,?,?,?,?,?,?,?,?,?,?,?,?,?,?,?
41,Female,White,15037,15037,?,T,?,?,?,?,?,?,?,?,?,?,?,?,?,?,?,?,?,?,?,?,?,?,?,?,?,?,?,T,?,?,?,?,?,?,?,?,?,?,?,?,?,?,?,?,?,?,?,?,?,?,?,?,?,?,?,?,?,?
53,Male,White,15216,15216,?,?,?,?,?,?,?,?,?,?,?,?,?,?,?,?,?,?,?,?,?,?,?,?,?,?,?,?,?,?,?,?,?,?,?,?,?,?,?,?,?,?,T,?,?,?,?,?,?,?,?,?,?,?,?,?,?,?,?,?
34,Male,White,15235,15235,?,?,?,?,?,?,?,?,?,?,?,?,?,?,?,?,?,?,?,?,?,?,?,?,T,?,?,?,?,?,?,?,?,?,?,?,?,?,?,?,?,?,?,?,?,?,?,?,?,?,?,?,?,?,?,?,?,?,?,?
46,Male,White,15226,15226,?,?,?,?,?,?,?,?,?,?,?,?,?,?,?,?,T,?,?,?,?,?,?,?,?,?,?,?,T,?,?,?,?,?,?,?,?,?,?,?,?,?,T,?,?,?,?,?,?,?,?,?,?,?,?,?,?,?,?,?
62,Male,White,15045,15045,?,?,T,?,?,?,?,?,?,?,?,?,?,?,?,?,?,?,?,?,T,?,?,?,T,?,?,?,?,?,?,?,?,?,?,?,?,?,?,?,?,?,?,?,?,?,?,?,?,?,?,?,?,?,?,?,?,?,?,?
40,Female,White,15235,15235,?,?,?,?,?,?,?,?,?,?,?,?,?,?,T,?,?,?,?,?,?,?,?,?,T,?,?,?,T,T,?,?,?,?,?,?,?,?,?,?,?,?,?,?,?,?,?,?,?,?,?,?,?,?,?,?,?,?,?,?
39,Female,White,15065,15065,?,?,?,?,?,?,?,?,?,?,?,?,?,?,?,?,?,?,?,?,?,?,?,?,T,?,?,?,T,?,?,?,?,?,?,?,?,?,?,?,?,?,?,?,?,?,?,?,?,?,?,?,?,?,?,?,?,?,?,?
32,Male,White,15202,15202,?,?,T,?,?,?,?,?,?,?,?,?,?,?,?,?,T,?,?,?,?,?,?,?,T,?,?,?,T,?,?,?,?,?,?,?,?,?,?,?,?,?,?,?,?,?,?,?,?,?,?,?,?,?,?,?,?,?,?,?
62,Male,White,15213,15213,?,?,?,?,?,?,?,?,?,?,?,?,?,?,?,?,?,?,?,?,?,?,?,?,T,?,?,?,?,?,?,?,?,?,T,?,?,?,?,?,?,?,?,?,?,?,?,?,?,?,?,?,?,?,?,?,?,?,?,?
23,Male,White,15122,15122,?,?,?,?,?,?,?,?,?,?,?,?,?,?,?,?,?,?,?,?,?,?,?,?,T,?,?,?,?,?,?,?,?,?,?,?,?,?,?,?,?,?,?,?,?,?,?,?,?,?,?,?,?,?,?,?,?,?,?,?
56,Male,Black,15212,15212,?,?,?,?,?,?,?,?,?,?,?,?,?,?,?,?,T,?,?,?,T,?,?,?,T,?,?,?,?,T,?,?,?,?,?,?,?,?,?,?,?,?,?,?,?,?,?,?,?,?,?,?,?,?,?,?,?,?,?,?
44,Female,White,15209,15209,?,?,?,?,?,?,?,?,?,?,?,?,?,?,?,?,?,?,?,?,?,T,T,?,T,?,?,?,?,?,?,?,?,?,?,?,?,?,T,?,?,?,?,?,?,?,?,?,?,?,?,?,?,?,?,?,?,?,?,?
24,Male,White,15222,15236,?,?,?,T,?,?,?,?,?,?,?,?,?,?,?,?,?,?,?,?,?,?,?,?,T,?,?,?,?,?,?,?,?,?,?,?,?,?,?,?,?,?,?,?,?,?,?,?,?,?,?,?,?,?,?,?,?,?,?,?
43,Male,White,15229,15229,?,?,?,?,?,?,?,?,?,?,?,?,?,?,?,?,?,?,?,?,?,?,?,?,T,?,?,?,T,?,?,?,?,?,?,?,?,?,?,?,?,?,?,T,?,?,?,?,?,?,?,?,?,?,?,?,?,?,?,?
57,Male,White,15203,15203,?,?,?,?,?,?,?,?,?,?,?,?,?,?,?,T,?,?,?,?,?,?,?,?,T,?,?,?,?,?,?,?,?,?,?,?,?,?,?,?,?,?,?,?,?,?,?,?,?,?,?,?,?,T,?,?,?,?,?,?
23,Male,White,15216,15216,?,?,?,?,?,?,?,?,?,?,?,?,?,?,?,?,?,?,?,?,?,?,?,?,T,?,?,?,?,?,?,?,?,?,?,?,?,?,?,?,?,?,?,?,?,?,?,?,?,?,?,?,?,?,?,?,?,?,?,?
39,Male,White,15227,15018,?,?,?,?,?,?,?,?,?,?,?,?,?,?,?,?,?,?,?,?,?,?,?,?,T,?,?,?,?,?,?,?,?,?,?,T,?,?,?,?,?,?,?,?,?,?,?,?,?,?,?,?,?,?,?,?,?,?,?,?
48,Male,Black,15221,15221,?,T,?,?,?,?,?,?,?,?,?,?,?,?,?,?,T,?,?,?,?,?,?,?,T,?,?,?,?,?,?,?,?,?,?,?,?,?,?,?,?,?,?,?,?,?,?,?,?,?,?,?,?,?,?,?,?,?,?,?
27,Male,Black,15210,15210,?,?,?,?,?,?,?,?,?,?,?,?,?,?,?,?,?,?,?,?,?,?,?,?,T,?,?,?,?,?,?,?,?,?,?,T,?,?,?,?,?,?,?,?,?,?,?,?,?,?,?,?,?,?,?,?,?,?,?,?
29,Male,White,15084,15084,?,?,?,?,?,?,?,?,?,?,?,?,?,?,?,?,?,?,?,?,?,?,?,?,T,?,?,?,?,?,?,?,?,?,?,?,?,?,?,?,?,?,?,?,?,?,?,?,?,?,?,?,?,?,?,?,?,?,?,?
30,Male,White,15017,15017,?,?,?,?,?,?,?,?,?,?,?,?,?,?,?,?,T,?,?,?,?,?,?,?,T,?,?,?,T,?,?,?,?,?,?,?,?,?,?,?,?,?,?,?,?,?,?,?,?,?,?,?,?,?,?,?,?,?,?,?
19,Female,White,15226,15226,?,?,T,?,?,?,?,?,?,?,?,?,?,?,?,?,?,?,?,?,?,?,?,?,T,?,?,?,?,?,?,?,?,?,?,?,?,?,?,?,?,?,?,?,?,?,?,?,?,?,?,?,?,?,?,?,?,?,?,?
32,Male,White,15227,15227,?,T,?,?,?,?,?,?,?,?,?,?,?,?,?,?,?,?,?,?,?,?,?,?,T,?,?,?,?,?,?,?,?,?,?,?,?,?,?,?,?,?,?,?,?,?,?,?,?,?,?,?,?,?,?,?,?,?,?,?
40,Female,Black,15136,15136,?,?,?,?,?,?,?,?,?,?,?,?,?,?,?,?,?,?,?,?,?,T,?,?,T,?,?,?,?,?,?,?,?,?,?,?,?,?,?,?,?,?,?,?,?,?,?,?,?,?,?,?,?,?,?,?,?,?,?,?
34,Male,White,15226,15212,?,?,?,?,?,?,?,?,?,?,?,?,?,?,?,?,T,?,?,?,?,?,?,?,T,?,?,?,T,?,?,?,?,?,?,?,?,?,?,?,?,?,?,?,?,?,?,?,?,?,?,?,?,?,?,?,?,?,?,?
24,Male,White,15214,15237,?,T,?,?,?,?,?,?,?,?,?,?,?,?,?,?,?,?,?,?,?,?,?,?,?,?,?,?,?,?,?,?,?,?,?,?,?,?,T,?,?,?,?,T,?,?,?,?,?,?,?,?,?,?,?,?,?,?,?,?
56,Male,White,15136,15229,?,?,?,?,?,?,?,?,?,?,?,?,?,?,?,?,T,?,?,?,?,?,?,?,?,?,?,?,?,?,?,?,?,?,?,?,?,?,?,?,?,?,?,?,?,?,?,?,?,?,?,?,?,?,?,?,?,?,?,?
38,Male,White,15147,15147,?,?,?,?,?,?,?,?,?,?,?,?,?,?,T,?,?,?,?,?,?,?,?,?,T,?,?,?,T,?,?,?,?,?,?,?,?,?,?,?,?,?,?,?,?,?,?,?,?,?,?,?,?,?,?,?,?,?,?,?
58,Male,White,15003,15003,?,?,?,?,?,?,?,?,?,?,?,?,?,?,?,?,?,?,?,?,?,?,?,?,T,?,?,?,?,?,?,?,?,?,?,?,?,?,?,?,?,?,T,?,?,?,?,?,?,?,?,?,?,?,?,?,?,?,?,?
47,Female,White,15210,15203,?,?,?,?,?,?,?,?,?,?,?,?,?,?,?,?,T,?,?,?,?,?,?,?,T,?,?,?,T,?,?,?,?,?,?,?,?,?,?,?,?,?,?,?,?,?,?,?,?,?,?,?,?,?,?,?,?,?,?,?
38,Male,White,15210,15210,?,?,?,?,?,?,?,?,?,?,?,?,?,?,?,?,T,?,?,?,?,?,?,?,T,?,?,?,?,?,?,?,?,?,?,?,?,?,?,?,?,?,?,?,?,?,?,?,?,?,?,?,?,?,?,?,?,?,?,?
54,Male,White,15205,15205,?,?,T,?,?,?,?,?,?,?,?,?,?,?,?,?,T,?,?,?,?,?,?,?,T,?,?,?,T,?,?,?,?,?,?,?,?,?,?,?,?,?,T,?,?,?,?,?,?,?,?,?,?,?,?,?,?,?,?,?
61,Male,Black,15207,15207,?,?,?,?,?,?,?,?,?,?,?,?,?,?,?,?,?,?,?,?,?,?,?,?,T,?,?,?,T,?,?,?,?,?,?,?,?,?,?,?,?,?,?,?,?,?,?,?,?,?,?,?,?,?,?,?,?,?,?,?
31,Male,White,15045,15045,?,?,?,?,?,?,?,?,?,?,?,?,?,?,?,?,?,?,?,T,?,?,?,?,?,?,?,?,?,?,?,?,?,?,?,?,?,?,?,?,?,?,?,?,?,?,?,?,?,?,?,?,?,?,?,?,?,?,?,?
67,Male,White,15144,15144,?,?,?,?,?,T,?,?,?,?,?,?,?,?,?,?,?,?,?,?,?,?,?,?,T,?,?,?,?,?,?,?,?,?,?,?,?,?,?,?,?,?,?,?,?,?,?,?,?,?,?,?,?,?,?,?,?,?,?,?
25,Male,White,15222,15222,?,T,T,?,?,?,?,?,?,?,?,?,?,?,?,?,T,?,?,?,T,?,?,?,T,?,?,?,?,?,?,?,?,?,?,?,?,?,?,?,?,?,?,?,?,?,?,?,?,?,?,?,?,?,?,?,?,?,?,?
39,Male,White,15122,15122,?,?,T,?,?,?,?,?,?,?,?,?,?,?,?,?,T,?,?,?,?,?,?,?,?,?,?,?,T,?,?,?,?,?,?,?,?,?,?,?,?,?,?,?,?,?,?,?,?,?,?,?,?,?,?,?,?,?,?,?
39,Male,White,15146,?,?,?,?,?,?,?,?,?,?,?,?,?,?,?,?,?,?,?,?,?,?,?,?,?,T,?,?,?,T,?,?,?,?,?,?,?,?,?,?,?,?,?,?,?,?,?,?,?,?,?,?,?,?,?,?,?,?,?,?,?
39,Male,Black,15212,15204,?,T,?,?,?,?,?,?,?,?,?,?,?,?,?,?,T,?,?,?,?,?,?,?,T,?,?,?,?,?,?,?,?,?,?,?,?,?,?,?,?,?,?,?,?,?,?,?,?,?,?,?,?,?,?,?,?,?,?,?
29,Male,White,15120,15227,?,T,T,?,?,?,?,?,?,?,?,?,?,?,?,?,?,?,?,?,T,?,?,?,T,?,?,?,?,?,?,?,?,?,?,?,?,?,?,?,?,?,?,?,?,?,?,?,?,?,?,?,?,?,?,?,?,?,?,?
56,Male,White,15212,15212,?,?,?,?,?,?,?,?,?,?,?,?,?,?,?,T,?,?,?,?,?,?,?,?,T,?,?,?,T,?,?,?,?,?,?,?,?,?,?,?,?,?,?,?,?,?,?,?,?,?,?,?,?,?,?,?,?,?,?,?
58,Female,Black,15104,15104,?,T,?,?,?,?,?,?,?,?,?,?,?,?,?,?,T,?,?,?,?,?,?,?,T,?,?,?,?,?,?,?,?,?,?,?,?,?,?,?,?,?,?,?,?,?,?,?,?,?,?,?,?,?,?,?,?,?,?,?
44,Male,White,15204,15204,?,?,?,?,?,?,?,?,?,?,?,?,?,?,?,T,?,?,?,?,?,?,?,?,T,?,?,?,T,?,?,?,?,?,?,?,?,?,?,?,?,?,?,?,?,?,?,?,?,?,?,?,?,?,?,?,?,?,?,?
56,Female,White,15216,15216,?,T,?,?,?,?,?,?,?,?,?,?,?,?,?,?,?,?,?,?,?,T,?,?,T,?,?,?,?,?,?,?,?,?,?,?,?,?,?,?,?,?,?,?,?,?,?,?,?,?,?,?,?,?,?,?,?,?,?,?
47,Female,White,15145,15145,?,T,?,?,?,?,?,?,?,?,?,?,?,?,?,?,?,?,?,?,?,?,?,?,T,?,?,?,T,?,?,?,?,?,?,?,?,?,?,?,?,?,?,?,?,?,?,?,?,?,?,?,?,?,?,?,?,?,?,?
24,Male,White,15237,15106,?,?,?,?,?,?,?,?,?,?,?,?,?,?,?,?,?,?,?,?,?,?,?,?,T,?,?,?,T,?,?,?,?,?,?,?,?,?,?,?,?,?,?,?,?,?,?,?,?,?,?,?,?,?,?,?,?,?,?,?
43,Male,White,15209,15209,?,?,?,?,?,?,?,T,?,?,?,?,?,?,?,?,?,?,?,?,?,?,?,?,T,?,?,?,?,?,?,?,?,?,?,?,?,?,?,?,?,?,?,?,?,?,?,?,?,?,?,?,?,?,?,?,?,?,?,?
33,Female,White,15224,15224,?,?,?,?,?,?,?,?,?,?,?,?,?,?,?,?,?,?,?,?,?,?,?,?,T,?,?,?,?,?,?,?,?,?,?,?,?,?,?,?,?,?,?,?,?,?,?,?,?,?,?,?,?,?,?,?,?,?,?,?
39,Female,Black,15219,15212,?,?,?,?,?,?,?,?,?,?,?,?,?,?,?,?,T,?,?,?,?,?,?,?,T,?,?,?,?,?,?,?,?,?,?,?,?,?,?,?,?,?,?,?,?,?,?,?,?,?,?,?,?,?,?,?,?,?,?,?
46,Male,White,15136,15136,?,T,?,?,?,?,?,?,?,?,?,?,?,?,?,?,T,?,?,?,?,?,?,?,T,?,?,?,?,?,?,?,?,?,?,?,?,?,?,?,?,?,?,?,?,?,?,?,?,?,?,?,?,?,?,?,?,?,?,?
65,Male,Black,15219,15074,?,T,?,?,?,?,?,?,?,?,?,?,?,?,?,?,?,?,?,?,?,?,?,?,T,?,?,?,?,?,?,?,?,?,?,?,?,?,?,?,?,?,?,?,?,?,?,?,?,?,?,?,?,?,?,?,?,?,?,?
28,Male,White,15146,17202,?,?,?,?,?,?,?,?,?,?,?,?,?,?,?,T,?,?,?,?,?,?,?,?,T,?,?,?,?,?,?,?,?,?,?,?,?,?,?,?,?,?,?,?,?,?,?,?,?,?,?,?,?,T,?,?,?,?,?,?
49,Male,White,15146,15146,?,T,?,?,?,?,?,?,?,?,?,?,?,?,?,?,?,?,?,?,T,?,?,?,?,?,?,?,?,?,?,?,?,?,?,?,?,?,?,?,?,?,?,?,?,?,?,?,?,?,?,?,?,?,?,?,?,?,?,?
51,Male,White,15210,15210,?,?,T,?,?,?,?,?,?,?,?,?,?,?,?,?,?,?,?,?,?,?,?,?,T,?,?,?,?,?,?,?,?,?,?,?,?,?,?,?,?,?,?,?,?,?,?,?,?,?,?,?,?,?,?,?,?,?,?,?
42,Female,White,15202,15202,?,?,?,?,?,?,?,?,?,?,?,?,?,?,T,T,?,?,?,?,?,?,?,?,?,?,?,?,?,?,?,?,?,?,?,?,?,?,?,?,?,?,T,?,?,?,?,?,?,?,?,?,?,?,?,?,?,?,?,?
28,Female,White,15136,15136,?,?,?,?,?,?,?,?,?,?,?,?,?,?,?,?,T,?,?,?,?,?,?,?,T,?,?,?,?,?,?,?,?,?,?,?,?,?,?,?,?,?,?,?,?,?,?,?,?,?,?,?,?,?,?,?,?,?,?,?
47,Male,White,15237,15237,?,T,?,?,?,?,?,?,?,?,?,?,?,?,?,?,?,?,?,?,?,?,?,?,T,?,?,?,T,?,?,?,?,?,?,?,?,?,?,?,?,?,?,?,?,?,?,?,?,?,?,?,?,?,?,?,?,?,?,?
48,Female,White,15136,15136,?,?,?,?,?,?,?,?,?,?,?,?,?,?,?,?,T,?,?,?,?,?,?,?,T,?,?,?,?,?,?,?,?,?,?,?,?,?,?,?,?,?,?,?,?,?,?,?,?,?,?,?,?,?,?,?,?,?,?,?
64,Male,White,15221,15221,?,?,?,?,?,?,?,?,?,?,?,?,?,?,?,?,?,?,?,?,?,?,?,?,T,?,?,?,?,?,?,?,?,?,?,?,?,?,?,?,?,?,?,?,?,?,?,?,?,?,?,?,?,?,T,?,?,?,?,?
50,Male,White,15237,16066,?,?,?,?,?,?,?,?,?,?,?,?,?,?,?,?,?,?,?,?,?,?,?,?,T,?,?,?,T,?,?,?,?,?,?,?,?,?,?,?,?,?,?,?,?,?,?,?,?,?,?,?,?,?,?,?,?,?,?,?
54,Female,White,15205,15205,?,?,?,?,?,?,?,?,?,?,?,?,?,?,T,?,T,?,T,?,?,?,?,?,T,?,?,?,?,?,?,?,?,?,?,?,?,?,?,?,?,?,?,?,?,?,?,?,?,?,?,?,?,?,?,?,?,?,?,?
24,Male,White,15212,15221,?,?,?,?,?,?,?,?,?,?,?,?,?,?,?,?,T,?,?,?,?,?,?,?,T,?,?,?,T,?,?,?,?,?,?,?,?,?,?,?,?,?,?,?,?,?,?,?,?,?,?,?,?,?,?,?,?,?,?,?
29,Female,White,15102,15102,?,?,?,?,?,?,?,?,?,?,?,?,?,?,?,?,?,?,?,?,?,?,?,?,T,?,?,?,T,?,?,?,?,?,?,?,?,?,?,?,?,?,?,?,?,?,?,?,?,?,?,?,?,?,?,?,?,?,?,?
31,Male,White,15228,?,?,T,?,?,?,?,?,?,?,?,?,?,?,?,?,?,T,?,?,?,?,?,?,?,T,?,?,?,?,?,?,?,?,?,?,?,?,?,?,?,?,?,?,?,?,?,?,?,?,?,?,?,?,?,?,?,?,?,?,?
36,Female,White,15108,15108,?,T,?,?,?,?,?,?,?,?,?,?,?,?,?,?,?,?,?,?,?,?,T,?,T,?,?,?,T,?,?,?,?,?,?,?,?,?,?,?,?,?,?,?,?,?,?,?,?,?,?,?,?,?,?,?,?,?,?,?
60,Male,White,15212,15212,?,?,?,?,?,?,?,?,?,?,?,?,?,?,?,?,?,?,?,?,?,?,?,?,T,?,?,?,?,?,?,?,?,?,?,?,?,?,?,?,?,?,?,?,?,?,?,?,?,?,?,?,?,?,?,?,?,?,?,?
29,Male,White,15227,15227,?,?,T,?,?,?,?,?,?,?,?,?,?,?,?,?,?,?,?,?,?,?,T,?,T,T,?,?,T,?,?,?,?,?,?,?,?,?,?,?,?,?,?,?,?,?,?,?,?,?,?,?,?,?,?,?,?,?,?,?
51,Male,White,15216,15216,?,?,?,?,?,?,?,?,?,?,?,?,?,?,?,?,?,?,?,?,?,?,?,?,T,?,?,?,?,?,?,?,?,?,?,?,?,?,?,?,?,?,?,?,?,?,?,?,?,?,?,?,?,?,T,?,?,?,?,?
54,Male,White,15147,15147,?,?,?,?,?,?,?,?,?,?,?,?,?,?,?,?,?,?,?,?,?,?,?,?,T,?,?,?,?,?,?,?,?,?,?,?,?,?,?,?,?,?,T,?,?,?,?,?,?,?,?,?,?,?,?,?,?,?,?,?
63,Male,White,15122,15122,?,?,T,?,?,?,?,?,?,?,?,?,?,?,?,T,?,?,?,?,?,?,?,?,T,?,?,?,?,?,?,?,?,?,?,?,?,?,?,?,?,?,?,?,?,?,?,?,?,?,?,?,?,?,?,?,?,?,?,?
31,Male,White,15222,15203,?,?,?,?,?,?,?,?,?,?,?,?,?,?,?,?,?,?,?,?,?,?,?,?,T,?,?,?,T,?,?,?,?,?,?,?,?,?,?,?,?,?,?,?,?,?,?,?,?,?,?,?,?,?,?,?,?,?,?,?
46,Female,White,15041,15041,?,?,?,?,?,?,?,?,?,?,?,?,?,?,?,?,T,?,?,?,?,?,?,?,T,?,?,?,?,?,?,?,?,?,?,?,?,?,?,?,?,?,?,?,?,?,?,?,?,?,?,?,?,?,?,?,?,?,?,?
21,Female,White,15210,15210,?,?,?,?,?,?,?,?,?,?,?,?,?,?,?,?,?,?,?,?,?,?,?,?,T,?,?,?,?,?,?,?,?,?,?,?,?,?,?,?,?,?,?,?,?,?,?,?,?,?,?,?,?,?,?,?,?,?,?,?
52,Female,Black,15208,15208,?,T,?,?,?,?,?,?,?,?,?,?,?,?,?,?,T,?,?,?,?,?,T,?,T,?,?,?,?,?,?,?,?,?,?,?,?,?,?,?,?,?,?,?,?,?,?,?,?,?,?,?,?,?,?,?,?,?,?,?
37,Male,Black,15210,15210,?,?,?,?,?,?,?,?,?,?,?,?,?,?,T,?,T,?,?,?,?,?,?,?,T,?,?,?,T,?,?,?,?,?,?,?,?,?,?,?,?,?,?,?,?,?,?,?,?,?,?,?,?,?,?,?,?,?,?,?
30,Female,White,15227,15227,?,?,?,?,?,?,?,?,?,?,?,?,?,?,?,?,?,?,?,?,?,?,?,?,T,?,?,?,?,?,?,?,?,?,?,?,?,?,?,?,?,?,?,?,?,?,?,?,?,?,?,?,?,?,?,?,?,?,?,?
60,Female,White,15104,15104,?,?,T,?,?,?,?,?,?,?,?,?,?,?,T,T,?,?,?,?,?,?,?,?,?,?,?,?,?,?,?,?,?,?,?,?,?,?,?,?,?,?,T,?,?,?,?,?,?,?,?,?,?,?,?,?,?,?,?,?
45,Male,Black,15219,15213,?,?,?,?,?,?,?,?,?,?,?,?,?,?,?,?,T,?,?,?,?,?,?,?,T,?,?,?,T,?,?,?,?,?,?,?,?,?,?,?,?,?,?,?,?,?,?,?,?,?,?,?,?,?,?,?,?,?,?,?
31,Female,White,15212,15212,?,?,?,?,?,?,?,?,?,?,?,?,?,?,?,?,?,?,?,?,?,?,?,?,T,?,?,?,T,?,?,?,?,?,?,?,?,?,?,?,?,?,?,?,?,?,T,?,?,?,?,?,?,?,?,?,?,?,?,?
68,Male,Black,15120,15120,?,T,?,?,?,?,?,?,?,?,?,?,?,?,?,?,?,?,?,?,?,?,?,?,T,?,?,?,?,?,?,?,?,?,?,?,?,?,?,?,?,?,?,?,?,?,?,?,?,?,?,?,?,T,?,?,?,?,?,?
25,Female,White,15142,15142,?,?,?,?,?,?,?,?,?,?,?,?,?,?,?,?,T,?,?,?,?,?,?,?,T,?,?,?,?,?,?,?,?,?,?,?,?,?,?,?,?,?,?,?,?,?,?,?,?,?,?,?,?,?,?,?,?,?,?,?
34,Male,White,15206,15206,?,?,?,?,?,?,?,?,?,?,?,?,?,?,?,?,?,?,?,?,?,?,?,?,T,?,?,?,?,?,?,?,?,?,?,?,?,?,?,?,?,?,?,?,?,?,?,?,?,?,?,?,?,T,?,?,?,?,?,?
52,Male,White,15235,15235,?,?,?,?,?,?,?,?,?,?,?,?,?,?,?,?,?,?,?,?,?,?,?,?,?,?,?,?,T,?,?,?,?,?,?,?,?,?,?,?,?,?,?,?,?,?,?,?,?,?,?,?,?,?,?,?,?,?,?,?
46,Male,White,15210,15210,?,?,?,?,?,?,?,?,?,?,?,T,?,?,?,?,T,?,?,?,?,?,?,?,T,?,?,?,T,?,?,?,?,?,?,?,?,?,?,?,?,?,?,?,?,?,?,?,?,?,?,?,?,?,?,?,?,?,?,?
27,Male,White,15106,15241,?,T,?,?,?,?,?,?,?,?,?,?,?,?,?,?,T,T,?,?,T,?,?,?,T,?,?,?,?,?,?,?,?,?,?,?,?,?,?,?,?,?,?,?,?,?,?,T,?,?,?,?,?,?,?,?,?,?,?,?
29,Male,White,15205,15136,?,?,?,?,?,?,?,?,?,?,?,?,?,?,?,?,T,?,?,?,?,?,?,?,T,?,?,?,?,?,?,?,?,?,?,?,?,?,?,?,?,?,?,?,?,?,?,?,?,?,?,?,?,?,?,?,?,?,?,?
61,Female,White,15211,15211,?,?,?,?,?,?,?,?,?,?,?,?,?,?,?,?,?,?,?,?,?,?,?,?,T,?,?,?,?,?,?,?,?,?,?,?,?,?,?,?,?,?,?,?,?,?,?,?,?,?,?,?,?,?,?,?,?,?,?,?
27,Male,Black,15210,15401,?,?,?,?,?,?,?,?,?,?,?,?,?,?,?,?,?,?,?,?,?,?,?,?,T,?,?,?,T,?,?,?,?,?,?,?,?,?,?,?,?,?,?,?,?,?,?,?,?,?,?,?,?,?,?,?,?,?,?,?
35,Male,White,15136,15126,?,T,?,?,?,?,?,?,?,?,?,?,?,?,?,?,?,?,?,?,?,?,?,?,T,?,?,?,?,?,?,?,?,?,?,?,?,?,?,?,?,?,?,?,?,?,?,?,?,?,?,?,?,?,?,?,?,?,?,?
36,Male,White,15140,15140,?,?,?,?,?,?,?,?,?,?,?,?,?,?,?,?,T,?,?,?,?,?,?,?,T,?,?,?,?,?,?,?,?,?,?,?,?,?,?,?,?,?,?,?,?,?,?,?,?,?,?,?,?,?,?,?,?,?,?,?
49,Male,White,15226,15226,?,T,?,?,?,?,?,?,?,?,?,?,?,?,?,?,?,?,?,?,?,?,?,?,T,?,?,?,?,?,?,?,?,?,?,?,?,?,?,?,?,?,?,?,?,?,?,?,?,?,?,?,?,?,?,?,?,?,?,?
39,Male,White,15223,15223,?,?,T,?,?,?,?,?,?,?,?,?,?,?,?,?,T,?,?,?,?,?,?,?,T,?,?,?,?,?,?,?,?,?,?,?,?,?,?,?,?,?,?,?,?,?,?,?,?,?,?,?,?,?,?,?,?,?,?,?
31,Male,White,15122,15122,?,?,?,?,?,?,?,?,?,?,?,?,?,?,?,?,?,T,?,?,?,T,?,?,T,?,?,?,T,T,?,?,?,?,?,?,?,?,?,?,?,?,T,?,?,?,?,?,?,?,?,?,?,?,?,?,?,?,?,?
34,Male,White,15210,15210,?,?,?,?,?,?,?,?,?,?,?,?,?,?,?,?,T,?,?,?,?,?,?,?,T,?,?,?,T,?,?,?,?,?,?,?,?,?,?,?,?,?,?,?,?,?,?,?,?,?,?,?,?,?,?,?,?,?,?,?
52,Male,White,15209,15209,?,T,?,?,?,?,?,?,?,?,?,?,?,?,?,?,?,?,?,?,?,?,?,?,T,?,?,?,?,?,?,?,?,?,?,?,?,?,?,?,?,?,?,?,?,?,?,?,?,?,?,?,?,?,?,?,?,?,?,?
36,Male,White,15146,15146,?,?,?,?,?,?,?,?,?,?,?,?,?,?,?,?,?,?,?,?,?,?,?,?,T,?,?,?,T,?,?,?,?,?,?,?,?,?,?,?,?,?,?,?,?,?,?,?,?,?,?,?,?,?,?,?,?,?,?,?
19,Female,Black,15210,15210,?,?,?,?,?,?,?,?,?,?,?,?,?,?,?,?,?,?,?,?,?,?,?,?,T,?,?,?,?,?,?,?,?,?,?,?,?,?,?,?,?,?,?,?,?,?,?,?,?,?,?,?,?,?,?,?,?,?,?,?
49,Male,Asian,15236,?,?,?,?,?,?,?,?,T,?,?,?,?,?,?,?,?,?,?,?,?,?,?,?,?,T,?,?,?,?,?,?,?,?,?,?,?,?,?,?,?,?,?,?,?,?,?,?,?,?,?,?,?,?,?,?,?,?,?,?,?
59,Female,Black,15218,15218,?,T,?,?,?,?,?,?,?,?,?,?,?,?,?,?,T,?,?,?,?,?,?,?,T,?,?,?,?,?,?,?,?,?,?,?,?,?,?,?,?,?,?,?,?,?,?,?,?,?,?,?,?,?,?,?,?,?,?,?
31,Male,White,15227,15227,?,?,?,?,?,?,?,?,?,?,?,?,?,?,?,?,T,?,?,?,?,?,?,?,T,?,?,?,T,?,?,?,?,?,?,T,?,?,?,?,?,?,?,?,?,?,?,?,?,?,?,?,?,?,?,?,?,?,?,?
41,Male,White,15224,15224,?,?,?,?,?,?,?,?,?,?,?,?,?,?,?,T,?,?,?,?,?,?,?,?,T,?,?,?,T,T,?,?,?,?,?,?,?,?,?,?,?,?,?,?,?,?,?,?,?,?,?,?,?,?,?,?,?,?,?,?
28,Male,White,15025,15122,?,?,?,?,?,?,?,?,?,?,?,?,?,?,?,?,?,?,?,?,?,?,?,?,T,?,?,?,?,?,?,?,?,?,?,?,?,?,?,?,?,?,?,?,?,?,?,?,?,?,?,?,?,?,?,?,?,?,?,?
23,Male,White,15203,15203,?,?,T,?,?,?,?,?,?,?,?,?,?,?,?,?,?,?,?,?,?,?,?,?,T,?,?,?,T,?,?,?,?,?,?,?,?,?,?,?,?,?,?,?,?,?,?,?,?,?,?,?,?,?,?,?,?,?,?,?
50,Male,White,15220,15220,?,?,?,?,?,?,?,T,?,?,?,?,?,?,?,?,T,?,?,?,?,?,?,?,T,?,?,?,?,?,?,?,?,?,?,?,?,?,?,?,?,?,?,?,?,?,?,?,?,?,?,?,?,?,?,?,?,?,?,?
59,Male,White,15132,15132,?,?,?,?,?,?,?,?,?,?,?,?,?,?,?,?,T,?,T,?,?,?,?,?,T,?,?,?,?,?,?,?,?,?,?,?,?,?,?,?,?,?,?,?,?,?,?,?,?,?,?,?,?,T,?,?,?,?,?,?
23,Male,White,15205,15205,?,?,?,?,?,?,?,?,?,?,?,?,?,?,?,?,?,?,?,?,?,?,?,?,T,?,?,?,?,?,?,?,?,?,?,?,?,?,?,?,?,?,?,?,?,?,?,?,?,?,?,?,?,?,?,?,?,?,?,?
24,Male,White,15211,15142,?,?,?,?,?,?,?,?,?,?,?,?,?,?,?,?,?,?,?,?,?,?,?,?,T,?,?,?,?,?,?,?,?,?,?,?,?,?,?,?,?,?,?,?,?,?,?,?,?,?,?,?,?,?,?,?,?,?,?,?
23,Female,White,15044,15024,?,?,?,?,?,?,?,?,?,?,?,?,?,?,?,?,?,?,?,?,?,?,?,?,T,?,?,?,?,?,?,?,?,?,?,?,?,?,?,?,?,?,?,?,?,?,?,?,?,?,?,?,?,?,?,?,?,?,?,?
54,Male,White,15147,15147,?,?,?,?,?,?,?,?,?,?,?,?,?,?,?,?,?,?,?,?,?,?,?,?,T,?,?,?,?,?,?,?,?,?,?,?,?,?,?,?,?,?,?,?,?,?,?,?,?,T,?,?,?,?,?,?,?,?,?,?
52,Female,White,15218,15218,?,?,?,?,?,?,?,?,?,?,?,?,?,?,T,?,?,?,?,?,?,?,?,?,T,?,?,?,?,?,?,?,?,?,?,?,?,?,?,?,?,?,?,?,?,?,?,?,?,?,?,?,?,T,?,?,?,?,?,?
31,Male,White,15212,?,?,T,?,?,?,?,?,?,?,?,?,?,?,?,?,?,?,?,?,?,?,?,?,?,T,?,?,?,?,?,?,?,?,?,?,?,?,?,?,?,?,?,?,?,?,?,?,?,?,?,?,?,?,?,?,?,?,?,?,?
35,Male,White,15101,15101,?,?,?,?,?,?,?,T,?,?,?,?,?,?,?,?,T,?,?,?,?,?,?,?,T,?,?,?,?,?,?,?,?,?,?,?,?,?,?,?,?,?,?,?,?,?,?,?,?,?,?,?,?,?,?,?,?,?,?,?
91,Female,White,15220,15220,T,?,?,?,?,?,?,?,?,?,?,?,?,?,T,?,?,?,?,?,?,?,?,?,?,?,?,?,?,?,?,?,?,?,?,?,?,?,T,?,?,?,?,?,?,?,?,?,?,?,?,?,?,?,?,?,?,?,?,?
39,Male,White,15131,15944,?,?,?,?,?,?,?,?,?,?,?,?,?,?,?,?,?,?,?,?,?,?,?,?,T,?,?,?,?,?,?,?,?,?,?,?,?,?,?,?,?,?,?,?,?,?,?,?,?,?,?,?,?,?,?,?,?,?,?,?
30,Female,White,15148,15148,?,?,?,?,?,?,?,?,?,?,?,?,?,?,?,?,?,?,?,?,?,?,?,?,T,?,?,?,?,?,?,?,?,?,?,?,?,?,?,?,?,?,?,?,?,?,?,?,?,?,?,?,?,?,?,?,?,?,?,?
38,Female,White,15234,15234,?,T,?,?,?,?,?,?,?,?,?,?,?,?,?,?,?,?,?,?,?,?,?,?,T,?,?,?,T,?,?,?,?,?,?,?,?,?,?,?,?,?,?,?,?,?,?,?,?,?,?,?,?,?,?,?,?,?,?,?
42,Male,White,15217,15217,?,?,?,?,?,?,?,?,?,?,?,?,?,?,?,?,?,?,?,?,?,?,?,?,T,?,?,?,?,?,?,?,?,?,?,?,?,?,?,?,?,?,?,?,?,?,?,?,?,?,?,?,?,?,?,?,?,?,?,?
33,Male,White,15212,15212,?,?,?,?,?,?,?,?,?,?,?,?,?,?,?,?,?,?,?,?,?,?,?,?,T,?,?,?,?,?,?,?,?,?,?,?,?,?,?,?,?,?,?,?,?,?,?,?,?,?,?,?,?,?,?,?,?,?,?,?
43,Female,White,15106,15106,?,?,?,?,?,?,?,?,?,?,?,?,?,?,?,?,?,?,?,?,?,?,?,?,T,?,?,?,T,?,?,?,?,?,?,?,?,?,?,?,?,?,?,?,?,?,?,?,?,?,?,?,?,?,?,?,?,?,?,?
40,Male,White,15203,15203,?,?,?,?,?,?,?,?,?,?,?,?,?,?,?,?,?,?,?,?,?,?,?,?,T,?,?,?,?,?,?,?,?,?,?,?,?,T,?,?,?,?,?,?,?,?,?,?,?,?,?,?,?,?,?,?,T,?,?,?
60,Male,White,15224,15224,?,?,?,?,?,?,?,?,?,?,?,?,?,?,?,?,?,?,?,?,?,?,?,?,T,T,?,?,?,?,?,?,?,?,?,?,?,?,?,?,?,?,?,?,?,?,?,?,?,?,?,?,?,?,?,?,?,?,?,?
40,Male,White,15210,15210,?,T,?,?,?,?,?,?,?,?,?,?,?,?,?,?,T,?,?,?,?,?,?,?,T,?,?,?,?,?,?,?,?,?,?,?,?,?,?,?,?,?,?,?,?,?,?,?,?,?,?,?,?,?,?,?,?,?,?,?
19,Male,White,15229,15229,?,?,T,?,?,?,?,?,?,?,?,?,?,?,?,?,?,?,?,?,?,?,?,?,T,?,?,?,T,?,?,?,?,?,?,?,?,?,?,?,?,?,?,?,?,?,?,?,?,?,?,?,?,?,?,?,?,?,?,?
29,Male,White,15045,15045,?,?,T,?,?,?,?,?,?,?,?,?,?,?,?,?,T,?,?,?,?,?,?,?,T,?,?,?,T,?,?,?,?,?,?,?,?,?,?,?,?,?,?,?,?,?,?,?,?,?,?,?,?,?,?,?,?,?,?,?
45,Male,White,15025,15025,?,?,?,?,?,?,?,?,?,?,?,?,?,?,?,T,?,?,?,?,?,?,?,?,T,?,?,?,T,?,?,?,?,?,?,?,?,?,?,?,?,?,?,?,?,?,?,?,?,?,?,?,?,T,?,?,T,?,?,?
48,Male,Black,15224,15224,?,?,?,?,?,?,?,?,?,?,?,?,?,?,?,?,T,?,?,?,?,?,?,?,T,?,?,?,?,?,?,?,?,?,?,?,?,?,?,?,?,?,?,?,?,?,?,?,?,?,?,?,?,?,?,?,?,?,?,?
23,Male,Black,15108,15108,?,?,T,?,?,?,?,?,?,?,?,?,?,?,?,?,?,?,?,?,?,?,?,?,?,?,?,?,?,T,?,?,?,?,?,?,?,?,?,?,?,?,T,?,?,?,?,?,?,?,?,?,?,?,?,?,?,?,?,?
25,Female,White,15229,15229,?,T,?,?,?,?,?,?,?,?,?,?,?,?,?,?,T,?,?,?,T,?,?,?,T,?,?,?,?,?,?,?,?,?,?,?,?,?,?,T,?,?,?,?,?,?,?,?,?,?,?,?,?,?,?,?,?,?,?,?
42,Male,White,15216,15216,?,?,T,?,?,?,?,?,?,?,?,?,?,?,?,?,?,?,?,?,?,?,?,?,T,?,?,?,T,?,?,?,?,?,?,?,?,?,?,?,?,?,?,?,?,?,?,?,?,?,?,?,?,?,?,?,?,?,?,?
56,Male,White,15212,15217,?,T,?,?,?,?,?,?,?,?,?,?,?,?,?,?,?,?,?,?,?,?,?,?,?,?,?,?,?,?,?,?,?,?,?,?,?,?,?,?,?,?,?,?,?,?,?,?,?,?,?,?,?,?,?,?,?,?,?,?
26,Female,White,15642,15642,?,?,?,?,T,?,?,?,?,?,?,?,?,?,?,?,?,?,?,?,?,?,?,?,T,?,?,?,?,?,?,?,?,?,?,?,?,?,?,?,?,?,?,?,?,?,?,?,?,?,?,?,?,?,?,?,?,?,?,?
41,Female,White,15120,15120,?,?,?,?,?,?,?,?,?,?,?,?,?,?,?,?,T,?,?,?,?,?,?,?,?,?,?,?,?,?,?,?,?,?,?,?,?,?,?,?,?,?,?,?,?,?,?,?,?,?,?,?,?,?,?,?,?,?,?,?
54,Male,White,15140,15140,?,?,?,?,?,?,?,?,?,?,?,?,?,?,?,?,T,?,?,?,?,?,?,?,T,?,?,?,?,?,?,?,?,?,?,?,?,?,?,?,?,?,?,?,?,?,?,?,?,?,?,?,?,?,?,?,?,?,?,?
43,Female,Black,15219,15219,?,?,?,?,?,?,?,?,?,?,?,?,?,?,?,?,T,?,?,?,?,?,?,?,T,?,?,?,T,?,?,?,?,?,?,?,?,?,?,?,?,?,?,?,?,?,?,?,?,?,?,?,?,?,?,?,?,?,?,?
38,Male,White,15219,15219,?,?,T,?,?,?,?,?,?,?,?,?,?,?,?,?,?,?,?,?,?,?,?,?,T,?,?,?,T,?,?,?,?,?,?,?,?,?,?,?,?,?,?,?,?,?,?,?,?,?,?,?,?,T,?,?,?,?,?,?
27,Male,White,?,?,?,?,?,?,?,?,?,?,?,?,?,?,?,?,?,?,T,?,?,?,?,?,?,?,T,?,?,?,T,?,?,?,?,?,?,?,?,?,?,?,?,?,?,?,?,?,?,?,?,?,?,?,?,?,?,?,?,?,?,?
27,Male,White,15201,15201,?,?,T,?,?,?,?,?,?,?,?,?,?,?,?,?,?,?,?,?,?,?,?,?,T,?,?,?,T,?,?,?,?,?,?,?,?,?,?,?,?,?,?,?,?,?,?,?,?,?,?,?,?,?,?,?,?,?,?,?
53,Male,White,15143,15143,?,?,?,?,T,?,?,?,?,?,?,?,?,?,?,T,T,?,?,?,?,?,?,?,T,?,?,?,?,?,?,?,?,?,?,?,?,?,?,?,?,?,?,?,?,?,?,?,?,?,?,?,?,?,?,?,?,?,?,?
53,Male,White,15210,15210,?,?,?,?,?,?,?,?,?,?,?,?,?,?,?,?,?,?,?,?,?,?,?,?,T,?,?,?,?,?,?,?,?,?,?,?,?,?,?,?,?,?,?,?,?,?,?,?,?,?,?,?,?,?,?,?,T,?,?,?
39,Male,White,15227,15227,?,?,?,?,?,?,?,?,?,?,?,?,?,?,?,?,T,?,?,?,?,?,?,?,T,?,?,?,T,?,?,?,?,?,?,?,?,?,?,?,?,?,?,?,?,?,?,?,?,?,?,?,?,?,?,?,?,?,?,?
37,Male,Black,15239,15239,?,?,?,?,?,?,?,?,?,?,?,?,?,?,?,?,?,?,?,?,?,?,?,?,T,?,?,?,T,?,?,?,?,?,?,?,?,?,?,?,?,?,?,?,?,?,?,?,?,?,?,?,?,?,?,?,?,?,?,?
28,Female,White,15222,15084,?,?,T,?,?,?,?,?,?,?,?,?,?,?,?,?,?,?,?,?,?,?,?,?,T,?,?,?,T,?,?,?,?,?,?,?,?,?,?,?,?,?,?,?,?,?,?,?,?,?,?,?,?,?,?,?,?,?,?,?
59,Male,White,15132,15132,?,T,?,?,?,?,?,?,?,?,?,?,?,?,?,?,?,?,?,?,?,?,?,?,T,?,?,?,?,?,?,?,?,?,?,?,?,?,?,?,?,?,?,?,?,?,?,?,?,?,?,?,?,?,?,?,?,?,?,?
53,Male,White,15219,15136,?,?,?,?,?,?,?,?,?,?,?,?,?,?,?,?,T,?,?,?,?,?,?,?,T,?,?,?,?,?,?,?,?,?,?,?,?,?,?,?,?,?,?,?,?,?,?,?,?,?,?,?,?,?,?,?,?,?,?,?
38,Male,Black,15205,15205,?,?,?,?,?,?,?,?,?,?,?,?,?,?,?,?,?,?,?,?,?,?,?,?,T,?,?,?,?,?,?,?,?,?,?,?,?,?,?,?,?,?,?,?,?,?,?,?,?,?,?,?,?,?,?,?,?,?,?,?
43,Male,White,15642,15038,?,?,T,?,?,?,?,?,?,?,?,?,?,?,?,?,?,?,?,?,?,?,?,?,T,?,?,?,?,?,?,?,?,?,?,?,?,?,?,?,?,?,?,?,?,?,?,?,?,?,?,?,?,?,?,?,?,?,?,?
33,Female,White,15201,15201,?,?,?,?,?,?,?,?,?,?,?,?,?,?,?,?,?,?,?,?,?,?,?,?,T,?,?,?,T,?,?,?,?,?,?,?,?,?,?,?,?,?,?,?,?,?,?,?,?,?,?,?,?,?,?,?,?,?,?,?
41,Male,Black,15208,15208,?,?,?,?,?,?,?,?,?,?,?,?,?,?,?,?,T,?,?,?,?,?,?,?,?,?,?,?,T,?,?,?,?,?,?,?,?,?,?,?,?,?,?,?,?,?,?,?,?,?,?,?,?,?,?,?,?,?,?,?
35,Male,White,15202,15202,?,?,?,?,?,?,?,T,?,?,?,?,?,?,?,T,?,?,?,?,?,?,?,?,?,?,?,?,?,?,?,?,?,?,?,?,?,?,?,?,?,?,?,T,?,?,?,?,?,?,?,?,?,?,?,?,?,?,?,?
47,Female,White,15136,15136,?,?,T,?,?,?,?,?,?,?,?,?,?,?,?,?,?,?,?,?,?,?,?,?,T,?,?,?,T,?,?,?,?,?,?,?,?,?,?,?,?,?,?,?,?,?,?,?,?,?,?,?,?,?,?,?,?,?,?,?
46,Male,White,15229,15229,?,?,?,?,?,?,?,?,?,?,?,?,?,?,?,?,?,?,?,?,?,?,?,?,T,?,?,?,?,?,?,?,?,?,?,?,?,?,?,?,?,?,?,?,?,?,?,?,?,?,?,?,?,?,?,?,?,?,?,?
60,Male,White,15201,15201,?,?,T,?,?,?,?,?,?,?,?,?,?,?,?,?,?,?,?,?,?,?,?,?,T,?,?,?,?,?,?,?,?,?,?,?,?,?,?,?,?,?,?,?,?,?,?,?,?,?,?,?,?,?,?,?,?,?,?,?
47,Male,White,15210,?,?,?,?,?,?,?,?,?,?,?,?,?,?,?,?,?,?,?,?,?,?,?,?,?,T,T,?,?,T,?,?,?,?,?,?,?,?,?,?,?,?,?,?,?,?,?,?,?,?,?,?,?,?,?,?,?,?,?,?,?
32,Male,White,15065,15065,?,?,T,?,?,?,?,?,?,?,?,?,?,?,?,?,?,?,?,?,?,?,?,?,?,?,?,?,?,?,?,?,?,?,T,?,?,?,?,?,?,?,?,?,?,?,?,?,?,?,?,?,?,?,?,?,?,?,?,?
51,Male,White,15227,15227,?,?,?,?,?,?,?,?,?,?,?,?,?,?,?,?,?,?,?,?,T,?,?,?,T,?,?,?,T,?,?,?,?,?,?,?,?,?,?,?,?,?,?,?,?,?,?,?,?,?,?,?,?,?,?,?,?,?,?,?
51,Female,Black,15136,?,?,?,?,?,?,?,?,?,?,?,?,?,?,?,?,?,T,?,?,?,?,?,?,?,?,?,?,?,?,?,?,?,?,?,?,?,?,?,?,?,?,?,?,?,?,?,?,?,?,?,?,?,?,?,?,?,?,?,?,?
36,Male,Black,15213,15213,?,?,?,?,?,?,?,?,?,?,?,?,?,?,?,?,?,?,?,?,?,?,?,?,T,?,?,?,?,?,?,?,?,?,?,?,?,?,?,?,?,?,?,?,?,?,?,?,?,?,?,?,?,?,?,?,?,?,?,?
46,Male,'Middle Eastern',15226,15226,?,?,?,?,?,?,?,?,?,?,?,?,?,?,?,?,T,?,?,?,?,?,?,?,?,?,?,?,?,T,?,?,?,?,?,?,?,?,?,?,?,?,?,?,?,?,?,?,?,?,?,?,?,?,?,?,?,?,?,?
44,Male,White,15136,15136,?,?,?,?,?,?,?,?,?,?,?,?,T,?,?,?,T,?,?,?,?,?,?,?,T,?,?,?,?,T,?,?,?,?,?,?,?,?,?,?,?,?,T,?,?,?,?,?,?,?,?,?,?,?,?,?,?,?,?,?
32,Female,White,15139,15139,?,T,?,?,?,?,?,?,?,?,?,?,?,?,?,?,?,?,?,?,?,?,?,?,T,?,?,?,T,?,?,?,?,?,?,?,?,?,?,?,?,?,?,?,?,?,?,?,?,?,?,?,?,?,?,?,?,?,?,?
36,Male,White,15201,15201,?,?,?,?,?,?,?,?,?,?,?,?,?,?,?,?,?,?,?,?,?,?,?,?,?,?,?,?,?,?,?,?,?,?,?,?,?,?,T,?,?,?,?,?,?,?,?,?,?,?,?,?,?,?,?,?,?,?,?,?
60,Female,Black,15206,15104,?,?,?,?,?,?,?,?,?,?,?,?,?,?,?,?,T,?,?,?,?,?,?,?,T,?,?,?,?,?,?,?,?,?,?,?,?,?,?,?,?,?,?,?,?,?,?,?,?,?,?,?,?,?,?,?,?,?,?,?
33,Male,White,15108,15108,?,?,?,?,?,?,?,?,?,?,?,?,?,?,T,?,?,?,?,T,?,T,?,?,?,?,?,?,?,?,?,?,?,?,?,?,?,?,?,?,?,?,?,?,?,?,?,?,?,?,?,?,?,?,?,?,T,?,T,?
54,Male,White,15201,15221,?,?,?,?,?,?,?,?,?,?,?,?,T,?,?,?,?,?,?,?,T,?,?,?,T,?,?,?,T,?,?,?,?,?,?,?,?,?,?,?,?,?,?,?,?,?,?,?,?,?,?,?,?,?,?,?,?,?,?,?
25,Female,White,15208,15208,?,?,?,?,?,?,?,?,?,?,?,?,?,?,?,?,?,?,?,?,?,?,?,?,T,?,?,?,?,?,?,?,?,?,?,?,?,?,?,?,?,?,?,?,?,?,?,?,?,?,?,?,?,?,?,?,?,?,?,?
46,Male,White,15147,15147,?,?,?,?,?,?,?,?,?,?,?,?,?,?,?,?,?,?,?,?,?,?,?,?,T,?,?,?,T,T,?,?,?,?,?,?,?,?,?,?,?,?,?,?,?,?,?,?,?,?,?,?,?,?,?,?,?,?,?,?
38,Male,Black,15212,?,?,T,?,?,?,?,?,?,?,?,?,?,?,?,?,?,T,?,?,?,?,?,?,?,T,?,?,?,?,?,?,?,?,?,?,?,?,?,?,?,?,?,?,?,?,?,?,?,?,?,?,?,?,?,?,?,?,?,?,?
40,Male,White,15122,15215,?,?,?,?,?,?,?,?,?,?,?,?,?,?,?,?,?,?,?,?,?,?,?,?,T,?,?,?,T,?,?,?,?,?,?,?,?,?,?,?,?,?,?,?,?,?,?,?,?,?,?,?,?,?,?,?,?,?,?,?
57,Male,White,15136,15136,?,T,?,?,?,?,?,?,?,?,?,?,?,?,?,?,T,?,?,?,?,?,?,?,T,?,?,?,T,?,?,?,?,?,?,?,?,?,?,?,?,?,?,?,?,?,?,?,?,?,?,?,?,?,?,?,?,?,?,?
21,Male,White,15210,15210,?,?,T,?,?,?,?,?,?,?,?,?,?,?,?,?,?,?,?,?,?,?,?,?,T,?,?,?,?,?,?,?,?,?,?,?,?,?,?,?,?,?,?,?,?,?,?,?,?,?,?,?,?,?,?,?,?,?,?,?
41,Female,White,15221,15206,?,?,?,?,?,?,?,?,?,?,?,?,?,?,?,?,T,?,?,?,?,?,?,?,T,?,?,?,T,?,?,?,?,?,?,?,?,?,?,?,?,?,?,?,?,?,?,?,?,?,?,?,?,T,?,?,?,?,?,?
42,Male,White,15136,15136,?,?,?,?,?,?,?,?,?,?,?,?,?,?,?,?,?,?,?,?,?,?,?,?,T,?,?,?,?,?,?,?,?,?,?,?,?,?,?,?,?,?,?,?,?,?,?,?,?,?,?,?,?,?,?,?,?,?,?,?
39,Male,White,15227,15227,?,?,?,?,?,?,?,?,?,?,?,?,?,?,?,?,?,?,?,?,T,?,?,?,T,?,?,?,T,?,?,?,?,?,?,?,?,?,?,?,?,?,?,?,?,?,?,?,T,?,?,?,?,?,?,?,?,?,?,?
51,Male,Black,15218,15218,?,?,?,?,?,?,?,?,?,?,?,?,?,?,?,?,T,?,?,?,?,?,?,?,T,?,?,?,?,?,?,?,?,?,?,?,?,?,?,?,?,?,?,?,?,?,?,?,?,?,?,?,?,?,?,?,?,?,?,?
27,Male,White,15045,15045,?,T,?,?,?,?,?,?,?,?,?,?,?,?,?,?,?,?,?,?,?,?,T,?,T,?,?,?,?,?,?,?,?,?,?,?,?,?,?,?,?,?,?,?,?,?,?,?,?,?,?,?,?,?,?,?,?,?,?,?
26,Male,White,15227,15227,?,?,?,?,?,?,?,?,?,?,?,?,?,?,?,?,?,?,?,T,?,?,?,?,T,?,?,?,?,?,?,?,?,?,?,?,?,?,?,?,?,?,?,?,?,?,?,?,?,?,?,?,?,?,?,?,?,?,?,?
58,Male,White,15037,15037,?,?,T,?,?,?,?,?,T,?,?,?,?,?,?,?,T,?,?,?,?,?,?,?,?,?,?,?,?,?,?,?,?,?,?,?,?,?,?,?,?,?,?,?,?,?,?,?,?,?,?,?,?,?,?,?,?,?,T,?
28,Male,White,15236,15236,?,?,T,?,?,?,?,?,?,?,?,?,?,?,?,?,?,?,?,?,?,?,?,?,T,?,?,?,?,?,?,?,?,?,?,?,?,?,?,?,?,?,?,?,?,?,?,?,?,?,?,?,?,?,?,?,?,?,?,?
29,Male,White,15102,15102,?,?,?,?,?,?,?,?,?,?,?,?,?,?,?,?,?,?,?,?,?,?,?,?,T,?,?,?,?,?,?,?,?,?,?,?,?,?,?,?,?,?,?,?,?,?,?,?,?,?,?,?,?,?,?,?,?,?,?,?
56,Male,White,15102,15102,?,?,T,?,?,?,?,?,?,?,?,?,?,?,?,?,?,?,?,?,?,?,?,?,T,?,?,?,T,?,?,?,?,?,?,?,?,?,?,?,?,?,?,?,?,?,?,?,?,?,?,?,?,?,?,?,?,?,?,?
55,Female,Black,15136,15136,?,T,?,?,?,?,?,?,?,?,?,?,?,?,?,?,T,?,?,?,?,?,?,?,T,?,?,?,T,?,?,?,?,?,?,?,?,?,?,?,?,?,?,?,?,?,?,?,?,?,?,?,?,?,?,?,?,?,?,?
39,Female,Black,15220,15220,?,?,?,?,?,?,?,?,?,?,?,?,?,?,?,?,?,?,?,?,?,?,?,?,T,?,?,?,?,?,?,?,?,?,?,?,?,?,?,?,?,?,?,?,?,?,?,?,?,?,?,?,?,?,?,?,?,?,?,?
50,Male,Black,15227,15227,?,?,?,?,?,?,?,?,?,?,?,?,?,?,?,?,?,?,?,?,?,?,?,?,?,?,?,?,?,?,?,?,?,?,?,?,?,?,?,?,?,?,?,?,?,?,?,?,?,?,?,?,?,?,?,?,?,?,?,?
24,Female,White,15218,15717,?,?,?,?,?,?,?,?,?,?,?,?,?,?,?,?,?,?,?,?,?,?,?,?,T,?,?,?,?,?,?,?,?,?,?,?,?,?,?,?,?,?,?,?,?,?,?,?,?,?,?,?,?,?,?,?,?,?,?,?
42,Male,White,15136,?,?,?,?,?,?,?,?,?,?,?,?,?,?,?,?,?,T,?,?,?,?,?,?,?,T,?,?,?,?,?,?,?,?,?,?,?,?,?,?,?,?,?,?,?,?,?,?,?,?,?,?,?,?,?,?,?,?,?,?,?
34,Male,White,15235,15235,?,T,?,?,?,?,?,?,?,?,?,?,?,?,?,?,?,?,?,?,?,?,?,?,T,?,?,?,?,T,?,?,?,?,?,?,?,?,?,?,?,?,T,?,?,?,?,?,?,?,?,?,?,?,?,?,?,?,?,?
18,Female,White,15207,15207,?,?,?,?,?,?,?,?,?,?,?,?,?,?,?,?,?,?,?,?,?,?,?,?,T,?,?,?,?,?,?,?,?,?,?,?,?,?,?,?,?,?,?,?,?,?,?,?,?,?,?,?,?,?,?,?,?,?,?,?
42,Female,White,15227,15227,?,?,?,?,?,?,?,?,?,?,?,?,?,?,?,?,T,?,?,?,?,?,?,?,?,?,?,?,T,?,?,?,?,?,?,?,?,?,?,?,?,?,?,?,?,?,?,?,?,?,?,?,?,?,?,?,?,?,?,?
25,Female,White,15037,15626,?,?,?,?,?,?,?,?,?,?,?,?,?,?,?,?,T,?,?,?,?,?,?,?,T,?,?,?,?,?,?,?,?,?,?,?,?,?,?,?,?,?,?,?,?,?,?,?,?,?,?,?,?,?,?,?,?,?,?,?
35,Male,White,15206,15206,?,?,?,?,?,?,?,?,?,?,?,?,?,?,?,?,T,?,?,?,?,?,?,?,T,?,?,?,?,?,?,?,?,?,?,?,?,?,?,?,?,?,?,?,?,?,?,?,?,?,?,?,?,?,?,?,?,?,?,?
36,Male,White,15223,15223,?,?,?,?,?,?,?,?,?,?,?,?,?,?,?,?,?,?,?,?,?,?,?,?,T,?,?,?,?,?,?,?,?,?,?,?,?,?,?,?,?,?,?,?,?,?,?,?,?,?,?,?,?,?,?,?,?,?,?,?
23,Male,White,15064,15064,?,T,?,?,?,?,?,?,?,?,?,?,?,?,?,?,?,?,?,?,?,?,?,?,T,?,?,?,?,?,?,?,?,?,?,?,?,?,?,?,?,?,?,?,?,?,?,?,?,?,?,?,?,?,?,?,?,?,?,?
46,Male,White,15235,15235,?,?,T,?,?,?,?,?,?,?,?,?,?,?,?,?,T,?,?,?,?,?,?,?,T,?,?,?,?,?,?,?,?,?,?,?,?,?,?,?,?,?,?,?,?,?,?,?,?,?,?,?,?,?,?,?,?,?,?,?
47,Female,White,15146,15146,?,?,?,?,?,?,?,?,?,?,?,?,?,?,?,?,?,?,?,T,?,?,?,?,T,?,?,?,?,?,T,?,?,?,?,?,?,?,?,?,?,?,?,?,?,?,?,?,?,?,T,?,?,T,?,?,?,?,?,?
52,Male,White,15120,15120,?,?,T,?,?,?,?,?,?,?,?,?,?,?,?,?,T,?,?,?,T,?,?,?,?,?,?,?,?,?,?,?,?,?,?,?,?,?,?,T,?,?,?,T,?,?,?,?,?,?,?,?,?,?,?,?,?,?,?,?
41,Male,Black,15235,15235,?,?,?,?,?,?,?,?,?,?,?,?,?,?,?,?,T,?,?,?,?,?,?,?,T,?,?,?,?,?,?,?,?,?,?,?,?,?,?,?,?,?,?,?,?,?,?,?,?,?,?,?,?,?,?,?,?,?,?,?
33,Male,Black,15147,15147,?,?,?,?,?,?,?,?,?,?,?,?,?,?,?,?,T,?,?,?,?,?,?,?,T,?,?,?,?,?,?,?,?,?,?,?,?,?,?,?,?,?,?,?,?,?,?,?,?,?,?,?,?,?,?,?,?,?,?,?
59,Male,White,15220,15063,?,T,?,?,?,?,?,?,?,?,?,?,?,?,?,?,?,?,?,?,?,?,?,?,?,?,?,?,T,?,?,?,?,?,?,?,?,?,?,?,?,?,?,?,?,?,?,?,?,?,?,?,?,?,T,?,?,?,?,?
26,Male,Black,15213,15213,?,?,?,?,?,?,?,?,?,?,?,?,?,?,?,?,?,?,?,?,?,?,?,?,T,?,?,?,T,?,?,?,?,?,?,?,?,?,?,?,?,?,?,?,?,?,?,?,?,?,?,?,?,?,?,?,?,?,?,?
33,Male,White,15101,15101,?,?,?,?,?,?,?,?,?,?,?,?,?,?,T,T,?,?,?,?,?,?,?,?,?,?,?,?,?,?,?,?,?,?,?,?,?,?,?,?,?,?,?,T,?,?,?,?,?,?,?,?,?,?,?,?,?,?,?,?
47,Male,White,15238,15238,?,?,?,?,?,?,?,?,?,?,?,?,?,?,?,?,T,?,?,?,?,?,?,?,T,?,?,?,T,?,?,?,?,?,?,?,?,?,?,?,?,?,T,?,?,?,?,?,?,?,?,?,?,?,?,?,?,?,?,?
56,Male,White,15045,15045,?,?,?,?,?,?,?,?,?,?,?,?,?,?,?,?,?,?,?,?,?,?,?,?,T,?,?,?,T,?,?,?,?,?,?,?,?,?,?,?,?,?,?,?,?,?,?,?,?,?,?,?,?,?,?,?,?,?,?,?
48,Male,White,15120,15120,?,T,?,?,?,?,?,?,?,?,?,?,?,?,?,?,T,?,?,?,?,?,?,?,T,?,?,?,?,?,?,?,?,?,?,?,?,?,?,?,?,?,?,?,?,?,?,?,?,?,?,?,?,?,?,?,?,?,?,?
28,Male,White,15207,15207,?,?,?,?,?,?,?,?,?,?,?,?,?,?,?,?,?,?,?,?,?,?,?,?,T,?,?,?,T,?,?,?,?,?,?,?,?,?,?,?,?,?,?,?,?,?,?,?,?,?,?,?,?,?,?,?,?,?,?,?
53,Male,White,15213,15213,?,T,?,?,?,?,?,?,?,?,?,?,?,?,?,?,?,?,?,?,?,?,?,?,?,?,?,?,?,?,?,?,?,?,?,?,?,?,?,?,?,?,?,?,?,?,?,?,?,?,?,?,?,?,?,?,?,?,?,?
25,Male,White,15237,15237,?,?,?,?,?,?,?,?,?,?,?,?,?,?,?,?,?,?,?,?,?,?,?,?,T,?,?,?,T,?,?,?,?,?,?,?,?,?,?,?,?,?,?,?,?,?,?,?,?,?,?,?,?,?,?,?,?,?,?,?
27,Male,White,15212,15212,?,?,?,?,?,?,?,?,?,?,?,?,?,?,?,?,?,?,?,?,?,?,?,?,T,?,?,?,T,?,?,?,?,?,?,?,?,?,?,?,?,?,?,?,?,?,?,?,?,?,?,?,?,?,?,?,?,?,?,?
55,Male,White,15108,15108,?,?,?,?,?,?,?,?,?,?,?,?,?,?,?,?,T,?,?,?,?,?,?,?,?,?,?,?,T,?,?,?,?,?,?,?,?,?,?,?,?,?,?,?,?,?,?,?,?,?,?,?,?,?,?,?,?,?,?,?
52,Female,Black,15137,15112,?,?,?,?,?,?,?,?,?,?,?,?,?,?,?,?,?,?,?,?,?,?,?,?,?,?,?,?,T,?,?,?,?,?,?,?,?,?,?,?,?,?,?,?,?,?,?,?,?,?,?,?,?,?,?,?,?,?,?,?
23,Female,White,15214,15211,?,?,?,?,?,?,?,?,?,?,?,?,?,?,?,T,T,?,?,?,?,?,?,?,?,?,?,?,?,?,?,?,?,?,?,?,?,?,?,?,?,?,?,?,?,?,?,?,?,?,?,?,?,?,?,?,?,?,?,?
24,Male,White,15236,15236,?,?,?,?,?,?,?,?,?,?,?,?,?,?,?,?,?,?,?,?,?,?,?,?,T,?,?,?,?,?,?,?,?,?,?,?,?,?,?,?,?,?,?,?,?,?,?,?,?,?,?,?,?,?,?,?,?,?,?,?
50,Female,White,15221,15221,?,?,?,?,?,?,?,?,?,?,?,?,?,?,?,T,?,?,?,?,?,?,?,?,T,?,?,?,T,?,?,?,?,?,?,?,?,?,?,?,?,?,?,?,?,?,?,?,?,?,?,?,?,?,?,?,?,?,?,?
33,Male,White,15210,15210,?,T,?,?,?,?,?,?,?,?,?,?,?,?,?,?,?,?,?,?,?,?,?,?,T,?,?,?,?,?,?,?,?,?,?,?,?,?,?,?,?,?,?,?,?,?,?,?,?,?,?,?,?,?,?,?,?,?,?,?
33,Male,White,15017,15031,?,T,?,?,?,?,?,?,?,?,?,?,?,?,?,?,T,?,?,?,?,?,?,?,T,?,?,?,?,?,?,?,?,?,?,?,?,?,?,?,?,?,?,?,?,?,?,?,?,?,?,?,?,?,?,?,?,?,?,?
51,Female,Black,15206,15206,?,?,?,?,?,?,?,?,?,?,?,?,?,?,?,?,T,?,?,?,?,?,?,?,T,?,?,?,?,?,?,?,?,?,?,?,?,?,?,?,?,?,T,?,?,?,?,?,?,?,?,?,?,?,?,?,?,?,?,?
41,Female,White,15122,15122,?,T,?,?,?,?,?,?,?,?,?,?,?,?,?,?,?,?,?,?,?,?,?,?,T,?,?,?,?,?,?,?,?,?,?,?,?,?,?,?,?,?,?,?,?,?,?,?,?,?,?,?,?,?,?,?,?,?,?,?
35,Male,White,15136,15136,?,?,?,?,?,?,?,?,?,?,?,?,?,?,?,?,T,?,?,?,?,?,?,?,T,?,?,?,T,?,?,?,?,?,?,?,?,?,?,?,?,?,?,?,?,?,?,?,?,?,?,?,?,?,?,?,?,?,?,?
31,Male,White,15219,15219,?,?,?,?,?,?,?,?,?,?,?,?,?,?,?,?,?,?,?,?,?,?,?,?,T,?,?,?,?,?,?,?,?,?,?,?,?,?,?,?,?,?,?,?,?,?,?,?,?,?,?,?,?,?,?,?,?,?,?,?
38,Female,White,15144,15144,T,?,?,?,?,?,?,?,?,?,?,?,?,?,?,T,?,?,?,?,?,?,?,?,T,?,?,?,T,?,?,?,?,?,?,?,?,?,?,?,?,?,?,?,?,?,?,?,?,?,?,?,?,?,?,?,?,?,?,?
25,Male,White,15108,15108,?,?,?,?,?,?,?,?,?,?,?,?,?,?,?,T,?,?,?,?,?,?,?,?,?,?,?,?,?,?,?,?,?,?,?,?,?,?,T,?,?,?,T,?,?,?,?,?,?,?,?,?,?,?,?,?,?,?,?,?
40,Female,White,15120,15120,?,?,?,?,?,?,?,?,?,?,?,?,?,?,?,?,?,?,?,?,?,?,?,?,T,?,?,?,?,?,?,?,?,?,?,?,?,?,?,?,?,?,?,?,?,?,?,?,?,?,?,?,?,?,?,?,?,?,?,?
24,Female,White,15233,15025,?,?,?,?,?,?,?,?,?,?,?,?,?,?,?,?,T,?,?,?,?,?,?,?,T,?,?,?,T,?,?,?,?,?,?,?,?,?,?,?,?,?,T,?,?,?,?,?,?,?,?,?,?,?,?,?,?,?,?,?
26,Male,White,15025,15133,?,T,?,?,?,?,?,?,?,?,?,?,?,?,?,?,T,?,?,?,?,?,?,?,T,?,?,?,?,?,?,?,?,?,?,?,?,?,?,?,?,?,?,?,?,?,?,?,?,?,?,?,?,?,?,?,?,?,?,?
59,Male,White,15236,15236,?,?,?,?,?,?,?,?,?,?,?,?,?,?,?,T,?,?,?,?,?,?,?,?,?,?,?,?,?,?,?,?,?,?,?,?,?,?,?,?,?,?,?,?,?,?,?,?,?,?,?,?,?,?,T,?,?,?,?,?
27,Male,White,15122,15122,?,T,?,?,?,?,?,?,?,?,?,?,?,?,?,?,T,?,?,?,?,?,?,?,T,?,?,?,?,?,?,?,?,?,?,?,?,?,?,?,?,?,?,?,?,?,?,?,?,?,?,?,?,?,?,?,?,?,?,?
28,Female,White,15108,15108,?,?,?,T,?,?,?,?,?,?,?,?,?,?,?,?,?,?,?,?,?,?,?,?,T,?,?,?,?,?,?,?,?,?,?,?,?,?,?,?,?,?,?,?,?,?,?,?,?,T,?,?,?,?,?,?,?,?,?,?
52,Female,White,15131,15131,?,?,?,?,?,?,?,?,?,?,?,?,?,?,?,T,T,?,?,?,?,?,T,?,T,?,?,?,T,?,?,?,?,?,?,?,?,?,?,?,?,?,?,?,T,?,?,?,?,?,?,?,?,?,?,?,?,?,?,?
55,Male,White,15144,15144,?,?,?,?,?,?,?,?,?,?,?,?,?,?,?,?,?,?,?,?,?,?,?,?,T,?,?,?,T,?,?,?,?,?,?,?,?,?,?,?,?,?,?,?,?,?,?,?,?,?,?,?,?,?,?,?,?,?,?,?
44,Female,Black,15239,15239,?,T,?,?,?,?,?,?,?,?,?,?,?,?,?,?,T,?,?,?,?,?,?,?,T,?,?,?,T,?,?,?,?,?,?,?,?,?,?,?,?,?,?,?,?,?,?,?,?,?,?,?,?,?,?,?,?,?,?,?
29,Male,White,?,15205,?,?,?,T,?,?,?,?,?,?,?,?,?,?,?,?,?,?,?,?,?,?,?,?,T,?,?,?,?,?,?,?,?,?,?,?,?,?,?,?,?,?,?,?,?,?,?,?,?,?,?,?,?,?,?,?,?,?,?,?
49,Female,Black,15208,15003,?,?,?,?,?,?,?,?,?,?,?,?,?,?,?,?,T,?,?,?,?,?,?,?,T,?,?,?,?,?,?,?,?,?,?,?,?,?,?,?,?,?,?,?,?,?,?,?,?,?,?,?,?,?,?,?,?,?,?,?
35,Male,White,15205,15205,?,T,?,?,?,?,?,?,?,?,?,?,?,?,?,?,?,?,?,?,?,?,?,?,T,?,?,?,?,?,?,?,?,?,?,?,?,?,?,?,?,?,?,?,?,?,?,?,?,?,?,?,?,?,?,?,?,?,?,?
55,Male,White,15145,15145,?,?,?,?,?,?,?,?,?,?,?,?,?,?,?,?,T,?,?,?,?,?,?,?,?,?,?,?,?,?,?,?,?,?,?,?,?,?,?,?,?,?,?,?,?,?,?,?,?,?,?,?,?,?,?,?,?,?,?,?
56,Male,Black,15210,15210,?,T,?,?,?,?,?,?,?,?,?,?,?,?,T,?,?,?,?,?,?,?,?,?,T,?,?,?,T,?,?,?,?,?,?,?,?,?,?,?,?,?,?,?,?,?,?,?,?,?,?,?,?,?,?,?,?,?,?,?
48,Male,White,15221,15221,?,?,?,?,?,?,?,?,?,?,?,?,?,?,?,?,T,?,?,?,?,?,?,?,T,?,?,?,?,?,?,?,?,?,?,?,?,?,?,?,?,?,?,?,?,?,?,?,?,?,?,?,?,?,?,?,?,?,?,?
50,Male,White,15132,15132,?,T,?,?,?,?,?,?,?,?,?,?,?,?,?,?,?,?,?,?,?,?,?,?,?,?,?,?,T,T,?,?,?,?,?,?,?,?,?,?,?,?,?,?,?,?,?,?,?,?,?,?,?,?,?,?,?,?,?,?
34,Male,White,15235,15235,?,T,T,?,?,?,?,?,?,?,?,?,?,?,?,T,?,?,?,?,?,?,?,?,T,?,?,?,T,?,?,?,?,?,?,?,?,?,?,?,?,?,?,?,?,?,?,?,?,?,?,?,?,?,?,?,?,?,?,?
20,Female,White,15206,15206,?,?,?,?,?,?,?,?,?,?,?,?,?,?,?,?,?,?,?,?,?,?,?,?,T,?,?,?,?,?,?,?,?,?,?,?,?,?,?,?,?,?,?,?,?,?,?,?,?,?,?,?,?,?,?,?,?,?,?,?
51,Male,White,15212,15212,?,?,?,?,?,?,?,?,?,?,?,?,?,?,?,?,T,?,?,?,?,?,?,?,T,?,?,?,T,?,?,?,?,?,?,?,?,?,?,?,?,?,?,?,?,?,?,?,?,?,?,?,?,?,?,?,?,?,?,?
33,Male,White,15202,15202,?,?,?,?,?,?,?,?,?,?,?,?,?,?,?,T,?,?,?,?,T,?,?,?,T,?,?,?,?,?,?,?,?,?,?,?,?,?,?,T,?,?,?,?,?,?,?,?,?,?,?,T,?,?,?,?,?,?,?,?
33,Male,White,15220,15220,?,?,?,?,?,?,?,?,?,?,?,?,?,?,?,?,?,?,?,?,?,?,?,?,T,?,?,?,?,?,?,?,?,?,?,?,?,?,?,?,?,?,?,?,?,?,?,?,?,?,?,?,?,?,?,?,?,?,?,?
29,Male,White,15226,15226,?,?,?,?,?,?,?,?,?,?,?,?,?,?,?,?,?,?,?,?,?,?,?,?,T,?,?,?,?,?,?,?,?,?,?,?,?,?,?,?,?,?,?,?,?,?,?,?,?,?,?,?,?,?,?,?,?,?,?,?
40,Female,White,15126,15126,?,?,?,?,?,?,?,?,?,?,?,?,?,?,?,?,?,?,?,?,?,?,?,?,T,?,?,?,?,?,?,?,?,?,?,?,?,?,?,?,?,?,?,?,?,?,?,?,?,?,?,?,?,?,?,?,?,?,?,?
33,Male,White,15136,15071,?,?,?,?,?,?,?,?,?,?,?,?,?,?,?,?,?,?,?,?,?,?,?,?,T,?,?,?,T,?,?,?,?,?,?,?,?,?,?,?,?,?,?,?,?,?,?,?,?,?,?,?,?,?,?,?,?,?,?,?
38,Male,White,15106,15106,?,T,?,?,?,?,?,?,?,?,?,?,?,?,?,?,?,?,?,?,?,?,?,?,T,?,?,?,T,?,?,?,?,?,?,?,?,?,?,?,?,?,?,?,?,?,?,?,?,?,?,?,?,?,?,?,?,?,?,?
32,Male,Black,15110,15110,?,?,?,?,?,?,?,?,?,?,?,?,?,?,?,?,?,?,?,?,?,?,?,?,T,?,?,?,?,?,?,?,?,?,?,?,?,?,?,?,?,?,?,?,?,?,?,?,?,?,?,?,?,?,?,?,?,?,?,?
51,Male,White,15210,15210,?,?,?,T,?,?,?,?,?,?,?,?,?,?,?,?,?,?,?,?,?,?,?,?,T,?,?,?,T,?,?,?,?,?,?,?,?,?,?,?,?,?,?,?,?,?,?,?,?,?,?,?,?,?,?,?,?,?,?,?
63,Male,White,15045,15045,?,?,?,?,?,?,?,?,?,?,?,?,?,?,?,?,?,?,?,?,?,?,?,?,T,?,?,?,T,?,?,?,?,?,?,?,?,?,?,?,?,?,?,?,?,?,?,?,?,?,?,?,?,?,?,?,?,?,?,?
41,Male,Black,15120,15133,?,T,?,?,?,?,?,?,?,?,?,?,?,?,?,?,T,?,?,?,?,?,?,?,T,?,?,?,T,?,?,?,?,?,?,?,?,?,?,?,?,?,?,?,?,?,?,?,?,?,?,?,?,?,?,?,?,?,?,?
43,Male,White,15202,15202,?,?,?,?,?,?,?,?,?,?,?,?,?,?,?,?,?,?,?,?,?,?,?,?,T,?,?,?,?,?,?,?,?,?,?,?,?,?,?,?,?,?,?,?,?,?,?,?,?,?,?,?,?,?,?,?,?,?,?,?
30,Male,White,15212,15212,?,?,T,?,?,?,?,?,?,?,?,?,?,?,?,?,?,?,?,?,?,?,?,?,T,?,?,?,?,?,?,?,?,?,?,?,?,?,?,?,?,?,?,?,?,?,?,?,?,?,?,?,?,T,?,?,?,?,?,?
55,Male,Black,15204,15204,?,?,?,?,?,?,?,?,?,?,?,?,?,?,?,?,T,?,?,?,?,?,?,?,?,?,?,?,?,?,?,?,?,?,?,?,?,?,?,?,?,?,?,?,?,?,?,?,?,?,?,?,?,?,?,?,?,?,?,?
50,Male,White,15212,15136,?,?,?,?,?,?,?,?,?,?,?,?,?,?,?,?,T,?,?,?,?,?,?,?,T,?,?,?,T,?,?,?,?,?,?,?,?,?,?,?,?,?,?,?,?,?,?,?,?,?,?,?,?,?,?,?,?,?,?,?
34,Male,White,15203,15203,?,?,?,?,?,?,?,?,?,?,?,?,?,?,?,?,?,?,?,?,?,?,?,?,T,?,?,?,T,?,?,?,?,?,?,?,?,?,?,?,?,?,?,?,?,?,?,?,?,?,?,?,?,?,?,?,?,?,?,?
51,Female,Black,15132,15132,?,T,?,?,?,?,?,?,?,?,?,?,?,?,?,?,T,?,?,?,?,?,?,?,?,?,?,?,?,T,?,?,?,?,?,?,?,?,?,?,?,?,?,?,?,?,?,?,?,?,?,?,?,?,?,?,?,?,?,?
25,Male,White,15102,15102,?,?,T,?,?,?,?,?,?,?,?,?,?,?,?,?,?,?,?,?,?,?,?,?,T,?,?,?,?,?,?,?,?,?,?,?,?,?,?,?,?,?,?,?,?,?,?,?,?,?,?,?,?,?,?,?,?,?,?,?
45,Male,White,15146,15146,?,?,?,?,?,?,?,?,?,?,?,?,?,?,?,?,?,?,?,?,?,?,?,?,?,T,?,?,T,?,?,?,?,?,?,?,?,T,?,?,?,?,?,?,?,?,?,?,?,T,?,?,?,?,?,?,?,?,?,?
29,Male,White,15227,15227,?,?,?,?,?,?,?,?,?,?,?,?,?,?,?,?,T,?,?,?,?,?,?,?,T,?,?,?,?,?,?,?,?,?,?,?,?,?,?,?,?,?,?,?,?,?,?,?,?,?,?,?,?,?,?,?,?,?,?,?
32,Male,Black,15235,15235,?,?,?,?,?,?,?,?,?,?,?,?,?,?,?,?,?,?,?,?,?,?,?,?,T,?,?,?,T,?,?,?,?,?,?,?,?,T,?,?,?,?,?,?,?,?,?,?,?,?,?,?,?,?,?,?,?,?,?,?
31,Female,White,15220,15220,?,?,?,?,?,?,?,?,?,?,?,?,?,?,?,?,T,?,?,?,?,?,?,?,T,?,?,?,?,?,?,?,?,?,?,?,?,?,?,?,?,?,?,?,?,?,?,?,?,?,?,?,?,?,?,?,?,?,?,?
48,Male,White,15206,15206,?,?,T,?,?,?,?,?,?,?,?,?,?,?,?,?,T,T,?,?,?,?,?,?,T,?,?,?,T,?,?,?,?,?,?,?,?,?,?,?,?,?,?,?,?,?,?,?,?,?,?,?,?,?,?,?,?,?,?,?
39,Male,White,15120,15136,?,?,T,?,?,?,?,?,?,?,?,?,?,?,?,?,T,?,?,?,?,?,?,?,T,?,?,?,?,?,?,?,?,?,?,?,?,?,?,?,?,?,?,?,?,?,?,?,?,?,?,?,?,?,?,?,?,?,?,?
55,Male,Black,15206,15206,?,?,?,?,?,?,?,?,?,?,?,?,?,?,?,?,T,?,?,?,?,?,?,?,?,?,?,?,?,?,?,?,?,?,?,?,?,?,?,?,?,?,?,?,?,?,?,?,?,?,?,?,?,?,?,?,?,?,?,?
33,Male,White,15237,15237,?,T,?,?,?,?,?,?,?,?,?,?,?,?,?,?,?,?,?,?,?,?,?,?,T,?,?,?,?,?,?,?,?,?,?,?,?,?,?,?,?,?,?,?,?,?,?,?,?,?,?,?,?,?,?,?,?,?,?,?
49,Female,White,15136,15136,?,?,T,?,?,?,?,?,?,?,?,?,?,?,?,?,T,?,?,?,?,?,?,?,T,?,?,?,?,?,?,?,?,?,T,?,?,?,?,?,?,?,?,?,?,?,?,?,?,?,?,?,?,?,?,?,?,?,?,?
29,Female,White,15201,15201,?,?,T,?,?,?,?,?,?,?,?,?,?,?,?,?,?,?,?,?,?,?,?,?,T,?,?,?,?,?,?,?,?,?,?,?,?,?,?,?,?,?,?,?,?,?,?,?,?,?,?,?,?,?,?,?,?,?,?,?
24,Male,White,15227,15227,?,?,?,?,?,?,?,?,?,?,?,?,?,?,?,?,?,?,?,?,?,?,?,?,T,?,?,?,T,?,?,?,?,?,?,?,?,?,?,?,?,?,?,?,?,?,?,?,?,?,?,?,?,?,?,?,?,?,?,?
31,Male,White,15206,15206,?,?,?,?,?,?,?,?,?,?,?,?,?,?,?,?,T,?,?,?,?,?,?,?,T,?,?,?,T,?,?,?,?,?,?,?,?,?,?,?,?,?,?,?,?,?,?,?,?,?,?,?,?,?,?,?,?,?,?,?
42,Male,White,15217,15217,?,T,?,?,?,?,?,?,?,?,?,?,?,?,?,?,T,?,?,?,?,?,?,?,T,?,?,?,?,?,?,?,?,?,?,?,?,?,?,?,?,?,?,?,?,?,?,?,?,?,?,?,?,?,?,?,?,?,?,?
37,Male,White,15226,15226,?,?,?,?,?,?,?,?,?,?,?,?,?,?,?,?,?,?,?,?,?,?,?,?,T,?,?,?,T,?,?,?,?,?,?,?,?,?,?,?,?,?,?,?,?,?,?,?,?,?,?,?,?,?,?,?,?,?,?,?
48,Male,Black,15221,15221,?,T,?,?,?,?,?,?,?,?,?,?,?,?,?,?,?,?,?,?,?,?,?,?,?,?,?,?,?,?,?,?,?,?,?,?,?,?,?,?,?,?,?,?,?,?,?,?,?,?,?,?,?,?,?,?,?,?,?,?
41,Male,White,15227,15227,?,T,?,?,?,?,?,?,?,?,?,?,?,?,?,?,T,?,?,?,?,?,?,?,T,?,?,?,?,?,?,?,?,?,?,?,?,?,?,?,?,?,?,?,?,?,?,?,?,?,?,?,?,?,?,?,?,?,?,?
59,Male,White,15212,15212,?,T,?,?,?,?,?,?,?,?,?,?,T,?,?,?,?,T,?,?,T,?,?,?,?,?,?,?,T,?,?,?,?,?,?,?,?,?,?,T,?,?,?,?,?,?,?,?,?,?,?,?,?,?,?,?,?,?,?,?
23,Male,White,15223,15223,?,?,?,?,T,?,?,?,?,?,?,?,?,?,?,?,?,?,?,?,?,?,?,?,T,?,?,?,?,?,?,?,?,?,?,?,?,?,?,?,?,?,?,?,?,?,?,?,?,?,?,?,?,?,?,?,?,?,?,?
60,Female,White,15221,15221,?,?,?,?,?,?,?,?,?,?,?,?,?,?,?,T,?,?,?,?,?,?,?,?,T,?,?,?,T,?,?,?,?,?,?,?,?,T,?,?,?,?,?,?,?,?,?,?,?,?,?,?,?,?,?,?,?,?,?,?
34,Male,White,15216,?,?,?,?,?,?,?,?,?,?,?,?,?,?,?,?,?,T,?,?,?,?,?,?,?,T,?,?,?,?,?,?,?,?,?,?,?,?,?,?,?,?,?,?,?,?,?,?,?,?,?,?,?,?,?,?,?,?,?,?,?
42,Female,White,15235,15235,?,?,?,?,?,?,?,?,?,?,?,?,?,?,?,?,T,?,?,?,?,?,?,?,T,?,?,?,?,?,?,?,?,?,?,?,?,?,?,?,?,?,?,?,?,?,?,?,?,?,?,?,?,?,?,?,?,?,?,?
24,Male,White,15211,15211,?,?,?,?,?,?,?,?,?,?,?,?,?,?,?,?,?,?,?,?,?,?,?,?,T,?,?,?,T,?,?,?,?,?,?,T,?,?,?,?,?,?,?,?,?,?,?,?,?,?,?,?,?,?,?,?,?,?,?,?
47,Female,White,15065,15065,?,?,?,T,?,?,?,?,?,?,?,?,?,?,T,?,?,?,?,?,?,T,?,?,?,?,?,?,?,?,?,?,?,?,?,?,T,?,?,?,?,?,?,?,?,?,?,?,?,?,?,?,?,?,?,?,?,?,?,?
26,Male,White,15205,15106,?,?,?,?,?,?,?,?,?,?,?,?,?,?,?,?,?,?,?,?,?,?,?,?,T,?,?,?,T,?,?,?,?,?,?,?,?,?,?,?,?,?,?,?,?,?,?,?,?,?,?,?,?,?,?,?,?,?,?,?
50,Male,White,15235,15235,?,?,?,?,?,?,?,?,?,?,?,?,?,?,?,?,?,?,?,?,T,?,?,?,T,?,?,?,?,?,?,?,?,?,?,?,?,T,?,?,?,?,?,?,?,?,?,?,?,?,?,?,?,T,?,?,?,?,?,?
47,Female,White,15212,15212,?,?,?,?,?,?,?,?,?,?,?,?,?,?,?,?,?,?,?,?,?,?,?,?,T,?,?,?,?,?,?,?,?,?,?,?,?,?,?,?,?,?,?,?,?,?,?,?,?,?,?,?,?,?,T,?,?,?,?,?
39,Male,White,15035,15132,?,?,?,?,?,?,?,?,?,?,?,?,?,?,?,?,T,?,?,?,?,?,?,?,T,?,?,?,T,?,?,?,?,?,?,?,?,?,?,?,?,?,?,?,?,?,?,?,?,?,?,?,?,?,?,?,?,?,?,?
33,Male,Black,15014,15014,?,?,?,?,?,?,?,?,?,?,?,?,?,?,?,?,?,?,?,?,?,?,?,?,T,?,?,?,?,?,?,?,?,?,?,?,?,?,?,?,?,?,?,?,?,?,?,?,?,?,?,?,?,?,?,?,?,?,?,?
53,Male,White,15208,15208,?,T,?,?,?,?,?,?,?,?,?,?,?,?,?,?,?,?,?,?,?,?,?,?,?,?,?,?,?,?,?,?,?,?,?,?,?,?,?,?,?,?,?,?,?,?,?,?,?,?,?,?,?,?,?,?,?,?,?,?
23,Female,White,15205,15229,?,?,T,?,?,?,?,?,?,?,?,?,?,?,?,?,?,?,?,?,?,?,?,?,T,?,?,?,T,?,?,?,?,?,?,?,?,?,?,?,?,?,?,?,?,?,?,?,?,?,?,?,?,?,?,?,?,?,?,?
36,Male,White,15226,15226,?,?,?,?,?,?,?,?,?,?,?,?,?,?,?,?,?,?,?,?,?,?,?,?,T,?,?,?,T,?,?,?,?,?,?,?,?,?,?,?,?,?,?,?,?,?,?,?,?,?,?,?,?,?,?,?,?,?,?,?
27,Male,White,15143,15143,?,?,?,?,?,?,?,?,?,?,?,?,?,?,?,?,?,?,?,?,?,?,?,?,T,?,?,?,T,?,?,?,?,?,?,?,?,?,?,?,?,?,?,?,?,?,?,?,?,?,?,?,?,?,?,?,?,?,?,?
31,Male,White,15216,15216,?,?,?,?,?,?,?,?,?,?,?,?,?,?,?,T,T,?,?,?,?,?,?,?,T,?,?,?,T,T,?,?,?,?,?,?,?,?,?,?,?,?,?,?,?,?,?,?,?,?,?,?,?,?,?,?,?,?,?,?
31,Male,White,15217,15090,?,?,?,?,?,?,?,?,?,?,?,?,?,?,?,?,?,?,?,?,?,?,?,?,T,?,?,?,T,?,?,?,?,?,?,?,?,?,?,?,?,?,?,?,?,?,?,?,?,?,?,?,?,?,?,?,?,?,?,?
29,Male,White,15216,15216,?,T,?,?,?,?,?,?,?,?,?,?,?,?,?,?,?,?,?,?,?,?,?,?,?,?,?,?,?,?,?,?,?,?,?,?,?,?,?,?,?,?,T,T,?,?,?,?,?,?,?,?,?,?,?,?,?,?,?,?
58,Female,White,15241,15241,?,T,?,?,?,?,?,T,?,?,?,?,?,?,?,?,?,?,?,?,?,?,?,?,?,?,?,?,?,?,?,?,?,?,?,?,?,?,T,?,?,?,?,?,?,?,?,?,?,?,?,?,?,?,?,?,?,?,?,?
55,Female,White,15110,15120,?,T,?,?,?,?,?,?,?,?,?,?,?,?,?,?,T,?,?,?,?,?,?,?,T,?,?,?,?,?,?,?,?,?,?,?,?,?,?,?,?,?,?,?,?,?,?,?,?,?,?,?,?,T,?,?,?,?,?,?
31,Male,White,15209,15219,?,?,?,?,?,?,?,?,?,?,?,?,?,?,?,?,?,?,?,?,?,?,?,?,T,?,?,?,T,?,?,?,?,?,?,?,?,?,?,?,?,?,?,?,?,?,?,?,?,?,?,?,?,?,?,?,?,?,?,?
